%YAML 1.1
%TAG !u! tag:unity3d.com,2011:
--- !u!1 &1002671924554089795
GameObject:
  m_ObjectHideFlags: 0
  m_CorrespondingSourceObject: {fileID: 0}
  m_PrefabInstance: {fileID: 0}
  m_PrefabAsset: {fileID: 0}
  serializedVersion: 6
  m_Component:
  - component: {fileID: 284079768129955005}
  - component: {fileID: 2257143736025367856}
  m_Layer: 31
  m_Name: Palette
  m_TagString: Untagged
  m_Icon: {fileID: 0}
  m_NavMeshLayer: 0
  m_StaticEditorFlags: 0
  m_IsActive: 1
--- !u!4 &284079768129955005
Transform:
  m_ObjectHideFlags: 0
  m_CorrespondingSourceObject: {fileID: 0}
  m_PrefabInstance: {fileID: 0}
  m_PrefabAsset: {fileID: 0}
  m_GameObject: {fileID: 1002671924554089795}
  m_LocalRotation: {x: 0, y: 0, z: 0, w: 1}
  m_LocalPosition: {x: 0, y: 0, z: 0}
  m_LocalScale: {x: 1, y: 1, z: 1}
  m_Children:
  - {fileID: 3869072102768280791}
  m_Father: {fileID: 0}
  m_RootOrder: 0
  m_LocalEulerAnglesHint: {x: 0, y: 0, z: 0}
--- !u!156049354 &2257143736025367856
Grid:
  m_ObjectHideFlags: 0
  m_CorrespondingSourceObject: {fileID: 0}
  m_PrefabInstance: {fileID: 0}
  m_PrefabAsset: {fileID: 0}
  m_GameObject: {fileID: 1002671924554089795}
  m_Enabled: 1
  m_CellSize: {x: 1, y: 1, z: 0}
  m_CellGap: {x: 0, y: 0, z: 0}
  m_CellLayout: 0
  m_CellSwizzle: 0
--- !u!1 &7618605383737270205
GameObject:
  m_ObjectHideFlags: 0
  m_CorrespondingSourceObject: {fileID: 0}
  m_PrefabInstance: {fileID: 0}
  m_PrefabAsset: {fileID: 0}
  serializedVersion: 6
  m_Component:
  - component: {fileID: 3869072102768280791}
  - component: {fileID: 4264792787576734366}
  - component: {fileID: 8072097720719916784}
  m_Layer: 31
  m_Name: Layer1
  m_TagString: Untagged
  m_Icon: {fileID: 0}
  m_NavMeshLayer: 0
  m_StaticEditorFlags: 0
  m_IsActive: 1
--- !u!4 &3869072102768280791
Transform:
  m_ObjectHideFlags: 0
  m_CorrespondingSourceObject: {fileID: 0}
  m_PrefabInstance: {fileID: 0}
  m_PrefabAsset: {fileID: 0}
  m_GameObject: {fileID: 7618605383737270205}
  m_LocalRotation: {x: -0, y: -0, z: -0, w: 1}
  m_LocalPosition: {x: 0, y: 0, z: 0}
  m_LocalScale: {x: 1, y: 1, z: 1}
  m_Children: []
  m_Father: {fileID: 284079768129955005}
  m_RootOrder: 0
  m_LocalEulerAnglesHint: {x: 0, y: 0, z: 0}
--- !u!1839735485 &4264792787576734366
Tilemap:
  m_ObjectHideFlags: 0
  m_CorrespondingSourceObject: {fileID: 0}
  m_PrefabInstance: {fileID: 0}
  m_PrefabAsset: {fileID: 0}
  m_GameObject: {fileID: 7618605383737270205}
  m_Enabled: 1
  m_Tiles:
  - first: {x: 1, y: -12, z: 0}
    second:
      m_TileIndex: 99
      m_TileSpriteIndex: 97
      m_TileMatrixIndex: 0
      m_TileColorIndex: 0
      m_ObjectToInstantiate: {fileID: 0}
      m_TileFlags: 0
      m_ColliderType: 0
  - first: {x: -3, y: -11, z: 0}
    second:
      m_TileIndex: 76
      m_TileSpriteIndex: 74
      m_TileMatrixIndex: 0
      m_TileColorIndex: 0
      m_ObjectToInstantiate: {fileID: 0}
      m_TileFlags: 1
      m_ColliderType: 1
  - first: {x: -2, y: -11, z: 0}
    second:
      m_TileIndex: 77
      m_TileSpriteIndex: 76
      m_TileMatrixIndex: 0
      m_TileColorIndex: 0
      m_ObjectToInstantiate: {fileID: 0}
      m_TileFlags: 1
      m_ColliderType: 1
  - first: {x: -1, y: -11, z: 0}
    second:
      m_TileIndex: 72
      m_TileSpriteIndex: 70
      m_TileMatrixIndex: 0
      m_TileColorIndex: 0
      m_ObjectToInstantiate: {fileID: 0}
      m_TileFlags: 1
      m_ColliderType: 1
  - first: {x: 0, y: -11, z: 0}
    second:
      m_TileIndex: 79
      m_TileSpriteIndex: 77
      m_TileMatrixIndex: 0
      m_TileColorIndex: 0
      m_ObjectToInstantiate: {fileID: 0}
      m_TileFlags: 0
      m_ColliderType: 0
  - first: {x: 1, y: -11, z: 0}
    second:
      m_TileIndex: 96
      m_TileSpriteIndex: 94
      m_TileMatrixIndex: 0
      m_TileColorIndex: 0
      m_ObjectToInstantiate: {fileID: 0}
      m_TileFlags: 0
      m_ColliderType: 0
  - first: {x: 2, y: -11, z: 0}
    second:
      m_TileIndex: 66
      m_TileSpriteIndex: 66
      m_TileMatrixIndex: 0
      m_TileColorIndex: 0
      m_ObjectToInstantiate: {fileID: 0}
      m_TileFlags: 1
      m_ColliderType: 1
  - first: {x: 3, y: -11, z: 0}
    second:
      m_TileIndex: 65
      m_TileSpriteIndex: 65
      m_TileMatrixIndex: 0
      m_TileColorIndex: 0
      m_ObjectToInstantiate: {fileID: 0}
      m_TileFlags: 1
      m_ColliderType: 1
  - first: {x: 4, y: -11, z: 0}
    second:
      m_TileIndex: 64
      m_TileSpriteIndex: 64
      m_TileMatrixIndex: 0
      m_TileColorIndex: 0
      m_ObjectToInstantiate: {fileID: 0}
      m_TileFlags: 1
      m_ColliderType: 1
  - first: {x: 5, y: -11, z: 0}
    second:
      m_TileIndex: 63
      m_TileSpriteIndex: 63
      m_TileMatrixIndex: 0
      m_TileColorIndex: 0
      m_ObjectToInstantiate: {fileID: 0}
      m_TileFlags: 1
      m_ColliderType: 1
  - first: {x: -3, y: -10, z: 0}
    second:
      m_TileIndex: 73
      m_TileSpriteIndex: 71
      m_TileMatrixIndex: 0
      m_TileColorIndex: 0
      m_ObjectToInstantiate: {fileID: 0}
      m_TileFlags: 1
      m_ColliderType: 1
  - first: {x: -2, y: -10, z: 0}
    second:
      m_TileIndex: 74
      m_TileSpriteIndex: 75
      m_TileMatrixIndex: 0
      m_TileColorIndex: 0
      m_ObjectToInstantiate: {fileID: 0}
      m_TileFlags: 1
      m_ColliderType: 1
  - first: {x: -1, y: -10, z: 0}
    second:
      m_TileIndex: 75
      m_TileSpriteIndex: 73
      m_TileMatrixIndex: 0
      m_TileColorIndex: 0
      m_ObjectToInstantiate: {fileID: 0}
      m_TileFlags: 1
      m_ColliderType: 1
  - first: {x: 0, y: -10, z: 0}
    second:
      m_TileIndex: 14
      m_TileSpriteIndex: 49
      m_TileMatrixIndex: 0
      m_TileColorIndex: 0
      m_ObjectToInstantiate: {fileID: 0}
      m_TileFlags: 0
      m_ColliderType: 0
  - first: {x: 1, y: -10, z: 0}
    second:
      m_TileIndex: 67
      m_TileSpriteIndex: 39
      m_TileMatrixIndex: 0
      m_TileColorIndex: 0
      m_ObjectToInstantiate: {fileID: 0}
      m_TileFlags: 0
      m_ColliderType: 0
  - first: {x: 2, y: -10, z: 0}
    second:
      m_TileIndex: 60
      m_TileSpriteIndex: 62
      m_TileMatrixIndex: 0
      m_TileColorIndex: 0
      m_ObjectToInstantiate: {fileID: 0}
      m_TileFlags: 1
      m_ColliderType: 1
  - first: {x: 3, y: -10, z: 0}
    second:
      m_TileIndex: 59
      m_TileSpriteIndex: 59
      m_TileMatrixIndex: 0
      m_TileColorIndex: 0
      m_ObjectToInstantiate: {fileID: 0}
      m_TileFlags: 1
      m_ColliderType: 1
  - first: {x: 4, y: -10, z: 0}
    second:
      m_TileIndex: 58
      m_TileSpriteIndex: 58
      m_TileMatrixIndex: 0
      m_TileColorIndex: 0
      m_ObjectToInstantiate: {fileID: 0}
      m_TileFlags: 1
      m_ColliderType: 1
  - first: {x: -4, y: -9, z: 0}
    second:
      m_TileIndex: 97
      m_TileSpriteIndex: 95
      m_TileMatrixIndex: 0
      m_TileColorIndex: 0
      m_ObjectToInstantiate: {fileID: 0}
      m_TileFlags: 0
      m_ColliderType: 0
  - first: {x: -3, y: -9, z: 0}
    second:
      m_TileIndex: 78
      m_TileSpriteIndex: 47
      m_TileMatrixIndex: 0
      m_TileColorIndex: 0
      m_ObjectToInstantiate: {fileID: 0}
      m_TileFlags: 1
      m_ColliderType: 1
  - first: {x: -2, y: -9, z: 0}
    second:
      m_TileIndex: 49
      m_TileSpriteIndex: 72
      m_TileMatrixIndex: 0
      m_TileColorIndex: 0
      m_ObjectToInstantiate: {fileID: 0}
      m_TileFlags: 1
      m_ColliderType: 1
  - first: {x: -1, y: -9, z: 0}
    second:
      m_TileIndex: 48
      m_TileSpriteIndex: 45
      m_TileMatrixIndex: 0
      m_TileColorIndex: 0
      m_ObjectToInstantiate: {fileID: 0}
      m_TileFlags: 1
      m_ColliderType: 1
  - first: {x: 0, y: -9, z: 0}
    second:
      m_TileIndex: 47
      m_TileSpriteIndex: 48
      m_TileMatrixIndex: 0
      m_TileColorIndex: 0
      m_ObjectToInstantiate: {fileID: 0}
      m_TileFlags: 1
      m_ColliderType: 1
  - first: {x: 1, y: -9, z: 0}
    second:
      m_TileIndex: 50
      m_TileSpriteIndex: 49
      m_TileMatrixIndex: 0
      m_TileColorIndex: 0
      m_ObjectToInstantiate: {fileID: 0}
      m_TileFlags: 1
      m_ColliderType: 1
  - first: {x: 2, y: -9, z: 0}
    second:
      m_TileIndex: 54
      m_TileSpriteIndex: 54
      m_TileMatrixIndex: 0
      m_TileColorIndex: 0
      m_ObjectToInstantiate: {fileID: 0}
      m_TileFlags: 1
      m_ColliderType: 1
  - first: {x: 3, y: -9, z: 0}
    second:
      m_TileIndex: 55
      m_TileSpriteIndex: 57
      m_TileMatrixIndex: 0
      m_TileColorIndex: 0
      m_ObjectToInstantiate: {fileID: 0}
      m_TileFlags: 1
      m_ColliderType: 1
  - first: {x: 4, y: -9, z: 0}
    second:
      m_TileIndex: 53
      m_TileSpriteIndex: 53
      m_TileMatrixIndex: 0
      m_TileColorIndex: 0
      m_ObjectToInstantiate: {fileID: 0}
      m_TileFlags: 1
      m_ColliderType: 1
  - first: {x: -4, y: -8, z: 0}
    second:
      m_TileIndex: 62
      m_TileSpriteIndex: 61
      m_TileMatrixIndex: 0
      m_TileColorIndex: 0
      m_ObjectToInstantiate: {fileID: 0}
      m_TileFlags: 1
      m_ColliderType: 1
  - first: {x: -3, y: -8, z: 0}
    second:
      m_TileIndex: 61
      m_TileSpriteIndex: 60
      m_TileMatrixIndex: 0
      m_TileColorIndex: 0
      m_ObjectToInstantiate: {fileID: 0}
      m_TileFlags: 1
      m_ColliderType: 1
  - first: {x: -2, y: -8, z: 0}
    second:
      m_TileIndex: 44
      m_TileSpriteIndex: 44
      m_TileMatrixIndex: 0
      m_TileColorIndex: 0
      m_ObjectToInstantiate: {fileID: 0}
      m_TileFlags: 1
      m_ColliderType: 1
  - first: {x: -1, y: -8, z: 0}
    second:
      m_TileIndex: 43
      m_TileSpriteIndex: 42
      m_TileMatrixIndex: 0
      m_TileColorIndex: 0
      m_ObjectToInstantiate: {fileID: 0}
      m_TileFlags: 1
      m_ColliderType: 1
  - first: {x: 0, y: -8, z: 0}
    second:
      m_TileIndex: 42
      m_TileSpriteIndex: 41
      m_TileMatrixIndex: 0
      m_TileColorIndex: 0
      m_ObjectToInstantiate: {fileID: 0}
      m_TileFlags: 1
      m_ColliderType: 1
  - first: {x: 1, y: -8, z: 0}
    second:
      m_TileIndex: 45
      m_TileSpriteIndex: 50
      m_TileMatrixIndex: 0
      m_TileColorIndex: 0
      m_ObjectToInstantiate: {fileID: 0}
      m_TileFlags: 1
      m_ColliderType: 1
  - first: {x: 2, y: -8, z: 0}
    second:
      m_TileIndex: 46
      m_TileSpriteIndex: 46
      m_TileMatrixIndex: 0
      m_TileColorIndex: 0
      m_ObjectToInstantiate: {fileID: 0}
      m_TileFlags: 1
      m_ColliderType: 1
  - first: {x: -4, y: -7, z: 0}
    second:
      m_TileIndex: 57
      m_TileSpriteIndex: 56
      m_TileMatrixIndex: 0
      m_TileColorIndex: 0
      m_ObjectToInstantiate: {fileID: 0}
      m_TileFlags: 1
      m_ColliderType: 1
  - first: {x: -3, y: -7, z: 0}
    second:
      m_TileIndex: 56
      m_TileSpriteIndex: 55
      m_TileMatrixIndex: 0
      m_TileColorIndex: 0
      m_ObjectToInstantiate: {fileID: 0}
      m_TileFlags: 1
      m_ColliderType: 1
  - first: {x: -2, y: -7, z: 0}
    second:
      m_TileIndex: 36
      m_TileSpriteIndex: 33
      m_TileMatrixIndex: 0
      m_TileColorIndex: 0
      m_ObjectToInstantiate: {fileID: 0}
      m_TileFlags: 1
      m_ColliderType: 1
  - first: {x: -1, y: -7, z: 0}
    second:
      m_TileIndex: 37
      m_TileSpriteIndex: 37
      m_TileMatrixIndex: 0
      m_TileColorIndex: 0
      m_ObjectToInstantiate: {fileID: 0}
      m_TileFlags: 1
      m_ColliderType: 1
  - first: {x: 0, y: -7, z: 0}
    second:
      m_TileIndex: 38
      m_TileSpriteIndex: 38
      m_TileMatrixIndex: 0
      m_TileColorIndex: 0
      m_ObjectToInstantiate: {fileID: 0}
      m_TileFlags: 1
      m_ColliderType: 1
  - first: {x: 1, y: -7, z: 0}
    second:
      m_TileIndex: 39
      m_TileSpriteIndex: 39
      m_TileMatrixIndex: 0
      m_TileColorIndex: 0
      m_ObjectToInstantiate: {fileID: 0}
      m_TileFlags: 1
      m_ColliderType: 1
  - first: {x: 2, y: -7, z: 0}
    second:
      m_TileIndex: 40
      m_TileSpriteIndex: 40
      m_TileMatrixIndex: 0
      m_TileColorIndex: 0
      m_ObjectToInstantiate: {fileID: 0}
      m_TileFlags: 1
      m_ColliderType: 1
  - first: {x: 3, y: -7, z: 0}
    second:
      m_TileIndex: 41
      m_TileSpriteIndex: 43
      m_TileMatrixIndex: 0
      m_TileColorIndex: 0
      m_ObjectToInstantiate: {fileID: 0}
      m_TileFlags: 1
      m_ColliderType: 1
  - first: {x: 4, y: -7, z: 0}
    second:
      m_TileIndex: 29
      m_TileSpriteIndex: 29
      m_TileMatrixIndex: 0
      m_TileColorIndex: 0
      m_ObjectToInstantiate: {fileID: 0}
      m_TileFlags: 1
      m_ColliderType: 1
  - first: {x: -4, y: -6, z: 0}
    second:
      m_TileIndex: 52
      m_TileSpriteIndex: 52
      m_TileMatrixIndex: 0
      m_TileColorIndex: 0
      m_ObjectToInstantiate: {fileID: 0}
      m_TileFlags: 1
      m_ColliderType: 1
  - first: {x: -3, y: -6, z: 0}
    second:
      m_TileIndex: 51
      m_TileSpriteIndex: 51
      m_TileMatrixIndex: 0
      m_TileColorIndex: 0
      m_ObjectToInstantiate: {fileID: 0}
      m_TileFlags: 1
      m_ColliderType: 1
  - first: {x: -1, y: -6, z: 0}
    second:
      m_TileIndex: 30
      m_TileSpriteIndex: 30
      m_TileMatrixIndex: 0
      m_TileColorIndex: 0
      m_ObjectToInstantiate: {fileID: 0}
      m_TileFlags: 1
      m_ColliderType: 1
  - first: {x: 0, y: -6, z: 0}
    second:
      m_TileIndex: 31
      m_TileSpriteIndex: 31
      m_TileMatrixIndex: 0
      m_TileColorIndex: 0
      m_ObjectToInstantiate: {fileID: 0}
      m_TileFlags: 1
      m_ColliderType: 1
  - first: {x: 1, y: -6, z: 0}
    second:
      m_TileIndex: 32
      m_TileSpriteIndex: 32
      m_TileMatrixIndex: 0
      m_TileColorIndex: 0
      m_ObjectToInstantiate: {fileID: 0}
      m_TileFlags: 1
      m_ColliderType: 1
  - first: {x: 2, y: -6, z: 0}
    second:
      m_TileIndex: 33
      m_TileSpriteIndex: 34
      m_TileMatrixIndex: 0
      m_TileColorIndex: 0
      m_ObjectToInstantiate: {fileID: 0}
      m_TileFlags: 1
      m_ColliderType: 1
  - first: {x: 3, y: -6, z: 0}
    second:
      m_TileIndex: 34
      m_TileSpriteIndex: 35
      m_TileMatrixIndex: 0
      m_TileColorIndex: 0
      m_ObjectToInstantiate: {fileID: 0}
      m_TileFlags: 1
      m_ColliderType: 1
  - first: {x: 4, y: -6, z: 0}
    second:
      m_TileIndex: 35
      m_TileSpriteIndex: 36
      m_TileMatrixIndex: 0
      m_TileColorIndex: 0
      m_ObjectToInstantiate: {fileID: 0}
      m_TileFlags: 1
      m_ColliderType: 1
  - first: {x: -4, y: -5, z: 0}
    second:
      m_TileIndex: 95
      m_TileSpriteIndex: 89
      m_TileMatrixIndex: 0
      m_TileColorIndex: 0
      m_ObjectToInstantiate: {fileID: 0}
      m_TileFlags: 1
      m_ColliderType: 1
  - first: {x: -3, y: -5, z: 0}
    second:
      m_TileIndex: 94
      m_TileSpriteIndex: 88
      m_TileMatrixIndex: 0
      m_TileColorIndex: 0
      m_ObjectToInstantiate: {fileID: 0}
      m_TileFlags: 1
      m_ColliderType: 1
  - first: {x: -2, y: -5, z: 0}
    second:
      m_TileIndex: 93
      m_TileSpriteIndex: 87
      m_TileMatrixIndex: 0
      m_TileColorIndex: 0
      m_ObjectToInstantiate: {fileID: 0}
      m_TileFlags: 1
      m_ColliderType: 1
  - first: {x: -1, y: -5, z: 0}
    second:
      m_TileIndex: 23
      m_TileSpriteIndex: 90
      m_TileMatrixIndex: 0
      m_TileColorIndex: 0
      m_ObjectToInstantiate: {fileID: 0}
      m_TileFlags: 1
      m_ColliderType: 1
  - first: {x: 0, y: -5, z: 0}
    second:
      m_TileIndex: 24
      m_TileSpriteIndex: 24
      m_TileMatrixIndex: 0
      m_TileColorIndex: 0
      m_ObjectToInstantiate: {fileID: 0}
      m_TileFlags: 1
      m_ColliderType: 1
  - first: {x: 1, y: -5, z: 0}
    second:
      m_TileIndex: 25
      m_TileSpriteIndex: 25
      m_TileMatrixIndex: 0
      m_TileColorIndex: 0
      m_ObjectToInstantiate: {fileID: 0}
      m_TileFlags: 1
      m_ColliderType: 1
  - first: {x: 2, y: -5, z: 0}
    second:
      m_TileIndex: 26
      m_TileSpriteIndex: 26
      m_TileMatrixIndex: 0
      m_TileColorIndex: 0
      m_ObjectToInstantiate: {fileID: 0}
      m_TileFlags: 1
      m_ColliderType: 1
  - first: {x: 3, y: -5, z: 0}
    second:
      m_TileIndex: 27
      m_TileSpriteIndex: 27
      m_TileMatrixIndex: 0
      m_TileColorIndex: 0
      m_ObjectToInstantiate: {fileID: 0}
      m_TileFlags: 1
      m_ColliderType: 1
  - first: {x: 4, y: -5, z: 0}
    second:
      m_TileIndex: 28
      m_TileSpriteIndex: 28
      m_TileMatrixIndex: 0
      m_TileColorIndex: 0
      m_ObjectToInstantiate: {fileID: 0}
      m_TileFlags: 1
      m_ColliderType: 1
  - first: {x: -4, y: -4, z: 0}
    second:
      m_TileIndex: 92
      m_TileSpriteIndex: 86
      m_TileMatrixIndex: 0
      m_TileColorIndex: 0
      m_ObjectToInstantiate: {fileID: 0}
      m_TileFlags: 1
      m_ColliderType: 1
  - first: {x: -3, y: -4, z: 0}
    second:
      m_TileIndex: 91
      m_TileSpriteIndex: 85
      m_TileMatrixIndex: 0
      m_TileColorIndex: 0
      m_ObjectToInstantiate: {fileID: 0}
      m_TileFlags: 1
      m_ColliderType: 1
  - first: {x: -2, y: -4, z: 0}
    second:
      m_TileIndex: 90
      m_TileSpriteIndex: 84
      m_TileMatrixIndex: 0
      m_TileColorIndex: 0
      m_ObjectToInstantiate: {fileID: 0}
      m_TileFlags: 1
      m_ColliderType: 1
  - first: {x: -1, y: -4, z: 0}
    second:
      m_TileIndex: 22
      m_TileSpriteIndex: 93
      m_TileMatrixIndex: 0
      m_TileColorIndex: 0
      m_ObjectToInstantiate: {fileID: 0}
      m_TileFlags: 1
      m_ColliderType: 1
  - first: {x: 0, y: -4, z: 0}
    second:
      m_TileIndex: 21
      m_TileSpriteIndex: 21
      m_TileMatrixIndex: 0
      m_TileColorIndex: 0
      m_ObjectToInstantiate: {fileID: 0}
      m_TileFlags: 1
      m_ColliderType: 1
  - first: {x: 1, y: -4, z: 0}
    second:
      m_TileIndex: 7
      m_TileSpriteIndex: 9
      m_TileMatrixIndex: 0
      m_TileColorIndex: 0
      m_ObjectToInstantiate: {fileID: 0}
      m_TileFlags: 1
      m_ColliderType: 1
  - first: {x: 2, y: -4, z: 0}
    second:
      m_TileIndex: 6
      m_TileSpriteIndex: 8
      m_TileMatrixIndex: 0
      m_TileColorIndex: 0
      m_ObjectToInstantiate: {fileID: 0}
      m_TileFlags: 1
      m_ColliderType: 1
  - first: {x: 3, y: -4, z: 0}
    second:
      m_TileIndex: 5
      m_TileSpriteIndex: 7
      m_TileMatrixIndex: 0
      m_TileColorIndex: 0
      m_ObjectToInstantiate: {fileID: 0}
      m_TileFlags: 1
      m_ColliderType: 1
  - first: {x: 4, y: -4, z: 0}
    second:
      m_TileIndex: 98
      m_TileSpriteIndex: 96
      m_TileMatrixIndex: 0
      m_TileColorIndex: 0
      m_ObjectToInstantiate: {fileID: 0}
      m_TileFlags: 1
      m_ColliderType: 1
  - first: {x: -7, y: -3, z: 0}
    second:
      m_TileIndex: 89
      m_TileSpriteIndex: 83
      m_TileMatrixIndex: 0
      m_TileColorIndex: 0
      m_ObjectToInstantiate: {fileID: 0}
      m_TileFlags: 1
      m_ColliderType: 1
  - first: {x: -6, y: -3, z: 0}
    second:
      m_TileIndex: 88
      m_TileSpriteIndex: 82
      m_TileMatrixIndex: 0
      m_TileColorIndex: 0
      m_ObjectToInstantiate: {fileID: 0}
      m_TileFlags: 1
      m_ColliderType: 1
  - first: {x: -5, y: -3, z: 0}
    second:
      m_TileIndex: 87
      m_TileSpriteIndex: 81
      m_TileMatrixIndex: 0
      m_TileColorIndex: 0
      m_ObjectToInstantiate: {fileID: 0}
      m_TileFlags: 1
      m_ColliderType: 1
  - first: {x: -4, y: -3, z: 0}
    second:
      m_TileIndex: 86
      m_TileSpriteIndex: 80
      m_TileMatrixIndex: 0
      m_TileColorIndex: 0
      m_ObjectToInstantiate: {fileID: 0}
      m_TileFlags: 1
      m_ColliderType: 1
  - first: {x: -3, y: -3, z: 0}
    second:
      m_TileIndex: 85
      m_TileSpriteIndex: 79
      m_TileMatrixIndex: 0
      m_TileColorIndex: 0
      m_ObjectToInstantiate: {fileID: 0}
      m_TileFlags: 1
      m_ColliderType: 1
  - first: {x: -2, y: -3, z: 0}
    second:
      m_TileIndex: 84
      m_TileSpriteIndex: 78
      m_TileMatrixIndex: 0
      m_TileColorIndex: 0
      m_ObjectToInstantiate: {fileID: 0}
      m_TileFlags: 1
      m_ColliderType: 1
  - first: {x: -1, y: -3, z: 0}
    second:
      m_TileIndex: 19
      m_TileSpriteIndex: 92
      m_TileMatrixIndex: 0
      m_TileColorIndex: 0
      m_ObjectToInstantiate: {fileID: 0}
      m_TileFlags: 1
      m_ColliderType: 1
  - first: {x: 0, y: -3, z: 0}
    second:
      m_TileIndex: 20
      m_TileSpriteIndex: 20
      m_TileMatrixIndex: 0
      m_TileColorIndex: 0
      m_ObjectToInstantiate: {fileID: 0}
      m_TileFlags: 1
      m_ColliderType: 1
  - first: {x: 1, y: -3, z: 0}
    second:
      m_TileIndex: 4
      m_TileSpriteIndex: 12
      m_TileMatrixIndex: 0
      m_TileColorIndex: 0
      m_ObjectToInstantiate: {fileID: 0}
      m_TileFlags: 1
      m_ColliderType: 1
  - first: {x: -7, y: -2, z: 0}
    second:
      m_TileIndex: 83
      m_TileSpriteIndex: 23
      m_TileMatrixIndex: 0
      m_TileColorIndex: 0
      m_ObjectToInstantiate: {fileID: 0}
      m_TileFlags: 1
      m_ColliderType: 1
  - first: {x: -6, y: -2, z: 0}
    second:
      m_TileIndex: 82
      m_TileSpriteIndex: 22
      m_TileMatrixIndex: 0
      m_TileColorIndex: 0
      m_ObjectToInstantiate: {fileID: 0}
      m_TileFlags: 1
      m_ColliderType: 1
  - first: {x: -5, y: -2, z: 0}
    second:
      m_TileIndex: 81
      m_TileSpriteIndex: 18
      m_TileMatrixIndex: 0
      m_TileColorIndex: 0
      m_ObjectToInstantiate: {fileID: 0}
      m_TileFlags: 1
      m_ColliderType: 1
  - first: {x: -3, y: -2, z: 0}
    second:
      m_TileIndex: 80
      m_TileSpriteIndex: 17
      m_TileMatrixIndex: 0
      m_TileColorIndex: 0
      m_ObjectToInstantiate: {fileID: 0}
      m_TileFlags: 1
      m_ColliderType: 1
  - first: {x: -1, y: -2, z: 0}
    second:
      m_TileIndex: 17
      m_TileSpriteIndex: 91
      m_TileMatrixIndex: 0
      m_TileColorIndex: 0
      m_ObjectToInstantiate: {fileID: 0}
      m_TileFlags: 1
      m_ColliderType: 1
  - first: {x: 0, y: -2, z: 0}
    second:
      m_TileIndex: 16
      m_TileSpriteIndex: 16
      m_TileMatrixIndex: 0
      m_TileColorIndex: 0
      m_ObjectToInstantiate: {fileID: 0}
      m_TileFlags: 1
      m_ColliderType: 1
  - first: {x: 1, y: -2, z: 0}
    second:
      m_TileIndex: 15
      m_TileSpriteIndex: 15
      m_TileMatrixIndex: 0
      m_TileColorIndex: 0
      m_ObjectToInstantiate: {fileID: 0}
      m_TileFlags: 1
      m_ColliderType: 1
  - first: {x: 2, y: -2, z: 0}
    second:
      m_TileIndex: 18
      m_TileSpriteIndex: 19
      m_TileMatrixIndex: 0
      m_TileColorIndex: 0
      m_ObjectToInstantiate: {fileID: 0}
      m_TileFlags: 1
      m_ColliderType: 1
  - first: {x: 3, y: -2, z: 0}
    second:
      m_TileIndex: 71
      m_TileSpriteIndex: 69
      m_TileMatrixIndex: 0
      m_TileColorIndex: 0
      m_ObjectToInstantiate: {fileID: 0}
      m_TileFlags: 1
      m_ColliderType: 1
  - first: {x: 4, y: -2, z: 0}
    second:
      m_TileIndex: 70
      m_TileSpriteIndex: 68
      m_TileMatrixIndex: 0
      m_TileColorIndex: 0
      m_ObjectToInstantiate: {fileID: 0}
      m_TileFlags: 1
      m_ColliderType: 1
  - first: {x: -1, y: -1, z: 0}
    second:
      m_TileIndex: 8
      m_TileSpriteIndex: 14
      m_TileMatrixIndex: 0
      m_TileColorIndex: 0
      m_ObjectToInstantiate: {fileID: 0}
      m_TileFlags: 1
      m_ColliderType: 1
  - first: {x: 0, y: -1, z: 0}
    second:
      m_TileIndex: 9
      m_TileSpriteIndex: 10
      m_TileMatrixIndex: 0
      m_TileColorIndex: 0
      m_ObjectToInstantiate: {fileID: 0}
      m_TileFlags: 1
      m_ColliderType: 1
  - first: {x: 1, y: -1, z: 0}
    second:
      m_TileIndex: 10
      m_TileSpriteIndex: 13
      m_TileMatrixIndex: 0
      m_TileColorIndex: 0
      m_ObjectToInstantiate: {fileID: 0}
      m_TileFlags: 1
      m_ColliderType: 1
  - first: {x: 2, y: -1, z: 0}
    second:
      m_TileIndex: 11
      m_TileSpriteIndex: 11
      m_TileMatrixIndex: 0
      m_TileColorIndex: 0
      m_ObjectToInstantiate: {fileID: 0}
      m_TileFlags: 1
      m_ColliderType: 1
  - first: {x: 3, y: -1, z: 0}
    second:
      m_TileIndex: 68
      m_TileSpriteIndex: 0
      m_TileMatrixIndex: 0
      m_TileColorIndex: 0
      m_ObjectToInstantiate: {fileID: 0}
      m_TileFlags: 1
      m_ColliderType: 1
  - first: {x: 4, y: -1, z: 0}
    second:
      m_TileIndex: 69
      m_TileSpriteIndex: 67
      m_TileMatrixIndex: 0
      m_TileColorIndex: 0
      m_ObjectToInstantiate: {fileID: 0}
      m_TileFlags: 1
      m_ColliderType: 1
  - first: {x: -1, y: 0, z: 0}
    second:
      m_TileIndex: 0
      m_TileSpriteIndex: 6
      m_TileMatrixIndex: 0
      m_TileColorIndex: 0
      m_ObjectToInstantiate: {fileID: 0}
      m_TileFlags: 1
      m_ColliderType: 1
  - first: {x: 0, y: 0, z: 0}
    second:
      m_TileIndex: 1
      m_TileSpriteIndex: 5
      m_TileMatrixIndex: 0
      m_TileColorIndex: 0
      m_ObjectToInstantiate: {fileID: 0}
      m_TileFlags: 1
      m_ColliderType: 1
  - first: {x: 1, y: 0, z: 0}
    second:
      m_TileIndex: 2
      m_TileSpriteIndex: 4
      m_TileMatrixIndex: 0
      m_TileColorIndex: 0
      m_ObjectToInstantiate: {fileID: 0}
      m_TileFlags: 1
      m_ColliderType: 1
  - first: {x: 2, y: 0, z: 0}
    second:
      m_TileIndex: 3
      m_TileSpriteIndex: 3
      m_TileMatrixIndex: 0
      m_TileColorIndex: 0
      m_ObjectToInstantiate: {fileID: 0}
      m_TileFlags: 1
      m_ColliderType: 1
  - first: {x: 3, y: 0, z: 0}
    second:
      m_TileIndex: 13
      m_TileSpriteIndex: 2
      m_TileMatrixIndex: 0
      m_TileColorIndex: 0
      m_ObjectToInstantiate: {fileID: 0}
      m_TileFlags: 1
      m_ColliderType: 1
  - first: {x: 4, y: 0, z: 0}
    second:
      m_TileIndex: 12
      m_TileSpriteIndex: 1
      m_TileMatrixIndex: 0
      m_TileColorIndex: 0
      m_ObjectToInstantiate: {fileID: 0}
      m_TileFlags: 1
      m_ColliderType: 1
  m_AnimatedTiles:
  - first: {x: 1, y: -12, z: 0}
    second:
      m_AnimatedSprites:
      - {fileID: 5408415560915331891, guid: d97b72b5ffdc75b4d9869e9a5ac7a5a5, type: 3}
      - {fileID: -4253740489203660619, guid: d97b72b5ffdc75b4d9869e9a5ac7a5a5, type: 3}
      - {fileID: 321441326304227561, guid: d97b72b5ffdc75b4d9869e9a5ac7a5a5, type: 3}
      - {fileID: -8657673441336929519, guid: d97b72b5ffdc75b4d9869e9a5ac7a5a5, type: 3}
      m_AnimationSpeed: 1
      m_AnimationTimeOffset: 0
      m_IsLooping: 1
  - first: {x: 0, y: -11, z: 0}
    second:
      m_AnimatedSprites:
      - {fileID: 4006798958623691636, guid: 7e5a054dcf3150c48b70c7dd21c960e0, type: 3}
      - {fileID: -726986586176349463, guid: 7e5a054dcf3150c48b70c7dd21c960e0, type: 3}
      - {fileID: -1570448690995009390, guid: 7e5a054dcf3150c48b70c7dd21c960e0, type: 3}
      - {fileID: 4403801600469109785, guid: 7e5a054dcf3150c48b70c7dd21c960e0, type: 3}
      - {fileID: -1570448690995009390, guid: 7e5a054dcf3150c48b70c7dd21c960e0, type: 3}
      - {fileID: -726986586176349463, guid: 7e5a054dcf3150c48b70c7dd21c960e0, type: 3}
      m_AnimationSpeed: 4
      m_AnimationTimeOffset: 0
      m_IsLooping: 1
  - first: {x: 1, y: -11, z: 0}
    second:
      m_AnimatedSprites:
      - {fileID: -2838782495369671528, guid: d97b72b5ffdc75b4d9869e9a5ac7a5a5, type: 3}
      - {fileID: -8278313820757341627, guid: d97b72b5ffdc75b4d9869e9a5ac7a5a5, type: 3}
      - {fileID: 81926720765371366, guid: d97b72b5ffdc75b4d9869e9a5ac7a5a5, type: 3}
      - {fileID: -6249504441017887560, guid: d97b72b5ffdc75b4d9869e9a5ac7a5a5, type: 3}
      m_AnimationSpeed: 20
      m_AnimationTimeOffset: 0
      m_IsLooping: 1
  - first: {x: 0, y: -10, z: 0}
    second:
      m_AnimatedSprites:
      - {fileID: -6730502161423479965, guid: 99737b414a34d8a48adfe8806ebe473d, type: 3}
      - {fileID: 378424659170294610, guid: 99737b414a34d8a48adfe8806ebe473d, type: 3}
      - {fileID: -9109134535479314518, guid: 99737b414a34d8a48adfe8806ebe473d, type: 3}
      - {fileID: -9109134535479314518, guid: 99737b414a34d8a48adfe8806ebe473d, type: 3}
      - {fileID: -9109134535479314518, guid: 99737b414a34d8a48adfe8806ebe473d, type: 3}
      - {fileID: -9109134535479314518, guid: 99737b414a34d8a48adfe8806ebe473d, type: 3}
      - {fileID: -9109134535479314518, guid: 99737b414a34d8a48adfe8806ebe473d, type: 3}
      - {fileID: -9109134535479314518, guid: 99737b414a34d8a48adfe8806ebe473d, type: 3}
      - {fileID: -9109134535479314518, guid: 99737b414a34d8a48adfe8806ebe473d, type: 3}
      - {fileID: -9109134535479314518, guid: 99737b414a34d8a48adfe8806ebe473d, type: 3}
      - {fileID: -9109134535479314518, guid: 99737b414a34d8a48adfe8806ebe473d, type: 3}
      - {fileID: 378424659170294610, guid: 99737b414a34d8a48adfe8806ebe473d, type: 3}
      - {fileID: -6730502161423479965, guid: 99737b414a34d8a48adfe8806ebe473d, type: 3}
      - {fileID: -6730502161423479965, guid: 99737b414a34d8a48adfe8806ebe473d, type: 3}
      - {fileID: -6730502161423479965, guid: 99737b414a34d8a48adfe8806ebe473d, type: 3}
      - {fileID: -6730502161423479965, guid: 99737b414a34d8a48adfe8806ebe473d, type: 3}
      - {fileID: -6730502161423479965, guid: 99737b414a34d8a48adfe8806ebe473d, type: 3}
      - {fileID: -6730502161423479965, guid: 99737b414a34d8a48adfe8806ebe473d, type: 3}
      - {fileID: -6730502161423479965, guid: 99737b414a34d8a48adfe8806ebe473d, type: 3}
      - {fileID: -6730502161423479965, guid: 99737b414a34d8a48adfe8806ebe473d, type: 3}
      - {fileID: -6730502161423479965, guid: 99737b414a34d8a48adfe8806ebe473d, type: 3}
      - {fileID: -6730502161423479965, guid: 99737b414a34d8a48adfe8806ebe473d, type: 3}
      - {fileID: -6730502161423479965, guid: 99737b414a34d8a48adfe8806ebe473d, type: 3}
      - {fileID: -6730502161423479965, guid: 99737b414a34d8a48adfe8806ebe473d, type: 3}
      - {fileID: -6730502161423479965, guid: 99737b414a34d8a48adfe8806ebe473d, type: 3}
      - {fileID: -6730502161423479965, guid: 99737b414a34d8a48adfe8806ebe473d, type: 3}
      - {fileID: -6730502161423479965, guid: 99737b414a34d8a48adfe8806ebe473d, type: 3}
      - {fileID: -6730502161423479965, guid: 99737b414a34d8a48adfe8806ebe473d, type: 3}
      - {fileID: -6730502161423479965, guid: 99737b414a34d8a48adfe8806ebe473d, type: 3}
      - {fileID: -6730502161423479965, guid: 99737b414a34d8a48adfe8806ebe473d, type: 3}
      - {fileID: -6730502161423479965, guid: 99737b414a34d8a48adfe8806ebe473d, type: 3}
      - {fileID: -6730502161423479965, guid: 99737b414a34d8a48adfe8806ebe473d, type: 3}
      - {fileID: -6730502161423479965, guid: 99737b414a34d8a48adfe8806ebe473d, type: 3}
      - {fileID: -6730502161423479965, guid: 99737b414a34d8a48adfe8806ebe473d, type: 3}
      - {fileID: -6730502161423479965, guid: 99737b414a34d8a48adfe8806ebe473d, type: 3}
      - {fileID: -6730502161423479965, guid: 99737b414a34d8a48adfe8806ebe473d, type: 3}
      - {fileID: -6730502161423479965, guid: 99737b414a34d8a48adfe8806ebe473d, type: 3}
      - {fileID: -6730502161423479965, guid: 99737b414a34d8a48adfe8806ebe473d, type: 3}
      - {fileID: -6730502161423479965, guid: 99737b414a34d8a48adfe8806ebe473d, type: 3}
      - {fileID: -6730502161423479965, guid: 99737b414a34d8a48adfe8806ebe473d, type: 3}
      m_AnimationSpeed: 10.000001
      m_AnimationTimeOffset: 0
      m_IsLooping: 1
  - first: {x: 1, y: -10, z: 0}
    second:
      m_AnimatedSprites:
      - {fileID: -9109134535479314518, guid: 99737b414a34d8a48adfe8806ebe473d, type: 3}
      - {fileID: 378424659170294610, guid: 99737b414a34d8a48adfe8806ebe473d, type: 3}
      - {fileID: -6730502161423479965, guid: 99737b414a34d8a48adfe8806ebe473d, type: 3}
      - {fileID: 378424659170294610, guid: 99737b414a34d8a48adfe8806ebe473d, type: 3}
      - {fileID: -9109134535479314518, guid: 99737b414a34d8a48adfe8806ebe473d, type: 3}
      - {fileID: -9109134535479314518, guid: 99737b414a34d8a48adfe8806ebe473d, type: 3}
      - {fileID: -9109134535479314518, guid: 99737b414a34d8a48adfe8806ebe473d, type: 3}
      - {fileID: -9109134535479314518, guid: 99737b414a34d8a48adfe8806ebe473d, type: 3}
      - {fileID: -9109134535479314518, guid: 99737b414a34d8a48adfe8806ebe473d, type: 3}
      - {fileID: -9109134535479314518, guid: 99737b414a34d8a48adfe8806ebe473d, type: 3}
      - {fileID: -9109134535479314518, guid: 99737b414a34d8a48adfe8806ebe473d, type: 3}
      - {fileID: -9109134535479314518, guid: 99737b414a34d8a48adfe8806ebe473d, type: 3}
      - {fileID: -9109134535479314518, guid: 99737b414a34d8a48adfe8806ebe473d, type: 3}
      - {fileID: -9109134535479314518, guid: 99737b414a34d8a48adfe8806ebe473d, type: 3}
      - {fileID: -9109134535479314518, guid: 99737b414a34d8a48adfe8806ebe473d, type: 3}
      - {fileID: -9109134535479314518, guid: 99737b414a34d8a48adfe8806ebe473d, type: 3}
      - {fileID: -9109134535479314518, guid: 99737b414a34d8a48adfe8806ebe473d, type: 3}
      - {fileID: -9109134535479314518, guid: 99737b414a34d8a48adfe8806ebe473d, type: 3}
      - {fileID: -9109134535479314518, guid: 99737b414a34d8a48adfe8806ebe473d, type: 3}
      - {fileID: -9109134535479314518, guid: 99737b414a34d8a48adfe8806ebe473d, type: 3}
      - {fileID: -9109134535479314518, guid: 99737b414a34d8a48adfe8806ebe473d, type: 3}
      - {fileID: -9109134535479314518, guid: 99737b414a34d8a48adfe8806ebe473d, type: 3}
      - {fileID: -9109134535479314518, guid: 99737b414a34d8a48adfe8806ebe473d, type: 3}
      - {fileID: -9109134535479314518, guid: 99737b414a34d8a48adfe8806ebe473d, type: 3}
      - {fileID: -9109134535479314518, guid: 99737b414a34d8a48adfe8806ebe473d, type: 3}
      m_AnimationSpeed: 10
      m_AnimationTimeOffset: 0
      m_IsLooping: 1
  - first: {x: -4, y: -9, z: 0}
    second:
      m_AnimatedSprites:
      - {fileID: 4596083932069072933, guid: d97b72b5ffdc75b4d9869e9a5ac7a5a5, type: 3}
      - {fileID: 7503078874047420344, guid: d97b72b5ffdc75b4d9869e9a5ac7a5a5, type: 3}
      - {fileID: -7594453519776507973, guid: d97b72b5ffdc75b4d9869e9a5ac7a5a5, type: 3}
      - {fileID: 1834576154975188552, guid: d97b72b5ffdc75b4d9869e9a5ac7a5a5, type: 3}
      m_AnimationSpeed: 7
      m_AnimationTimeOffset: 0
      m_IsLooping: 1
  m_TileAssetArray:
  - m_RefCount: 1
    m_Data: {fileID: 11400000, guid: e2e3da08303b421429319ec4e193fce3, type: 2}
  - m_RefCount: 1
    m_Data: {fileID: 11400000, guid: 892a1ff2ad867da41a62ca5f0f4a3ef6, type: 2}
  - m_RefCount: 1
    m_Data: {fileID: 11400000, guid: 5a234ca0efc1cef4784da865d8f6907b, type: 2}
  - m_RefCount: 1
    m_Data: {fileID: 11400000, guid: e4dddcdda0a218744be5e3b7862b670c, type: 2}
  - m_RefCount: 1
    m_Data: {fileID: 11400000, guid: 5bf6dc08adeb3d14ab58879810308f6e, type: 2}
  - m_RefCount: 1
    m_Data: {fileID: 11400000, guid: 9129601b153e7aa4ab5434c965a25f47, type: 2}
  - m_RefCount: 1
    m_Data: {fileID: 11400000, guid: 802a0bfc3202ad546b50860791df9ff8, type: 2}
  - m_RefCount: 1
    m_Data: {fileID: 11400000, guid: e4d27aa0264fa98469c6b7729d940c67, type: 2}
  - m_RefCount: 1
    m_Data: {fileID: 11400000, guid: fe8581a3ac6252a488fa99c1ffc1ef41, type: 2}
  - m_RefCount: 1
    m_Data: {fileID: 11400000, guid: a3b3a4de9e3699d428bfde2ba5dbeb05, type: 2}
  - m_RefCount: 1
    m_Data: {fileID: 11400000, guid: 1be5c78847d7036409e1891e5e03e7ee, type: 2}
  - m_RefCount: 1
    m_Data: {fileID: 11400000, guid: 5b81541945976f148a2ceabc63eb035b, type: 2}
  - m_RefCount: 1
    m_Data: {fileID: 11400000, guid: 58e7d74c3619a584aa251898f39b240c, type: 2}
  - m_RefCount: 1
    m_Data: {fileID: 11400000, guid: dfee2288c84cd0f4c87c817c678d53b6, type: 2}
  - m_RefCount: 1
    m_Data: {fileID: 11400000, guid: 9eedcc326a647f5429b802e0d9f69538, type: 2}
  - m_RefCount: 1
    m_Data: {fileID: 11400000, guid: d557d3fa92954744bbdfe70d598704a8, type: 2}
  - m_RefCount: 1
    m_Data: {fileID: 11400000, guid: e56e443cf75093c4dbb6af90306a0df6, type: 2}
  - m_RefCount: 1
    m_Data: {fileID: 11400000, guid: 4e28768edba172c47908cebccae7b823, type: 2}
  - m_RefCount: 1
    m_Data: {fileID: 11400000, guid: 8eed9ec7829cbe745b28fd897ee47947, type: 2}
  - m_RefCount: 1
    m_Data: {fileID: 11400000, guid: b1ad1bd24b24efb4591927d622be8f45, type: 2}
  - m_RefCount: 1
    m_Data: {fileID: 11400000, guid: af3aa1e79f2cb5b49bd8d59a3564c91d, type: 2}
  - m_RefCount: 1
    m_Data: {fileID: 11400000, guid: 7c6d5dd8dcde9cd43a5d7ab8fb73eb14, type: 2}
  - m_RefCount: 1
    m_Data: {fileID: 11400000, guid: 8009aa4c93b44b24db853f24f50f6ca2, type: 2}
  - m_RefCount: 1
    m_Data: {fileID: 11400000, guid: 8efc377fd3d6f63409dd2e2fc3950661, type: 2}
  - m_RefCount: 1
    m_Data: {fileID: 11400000, guid: bd2d78fb5bc52d546923bfb50fb40a04, type: 2}
  - m_RefCount: 1
    m_Data: {fileID: 11400000, guid: b896de5e1a5991c4f85f33f581388f30, type: 2}
  - m_RefCount: 1
    m_Data: {fileID: 11400000, guid: c986f773224f3864199ae1c242fd11a1, type: 2}
  - m_RefCount: 1
    m_Data: {fileID: 11400000, guid: 813e511c71a9df74aa43d1f4505e3158, type: 2}
  - m_RefCount: 1
    m_Data: {fileID: 11400000, guid: 6a452fbfe38671b488183b6f0fa9ab36, type: 2}
  - m_RefCount: 1
    m_Data: {fileID: 11400000, guid: 7df0e41f013f0de4a81ef5cb60f20d4e, type: 2}
  - m_RefCount: 1
    m_Data: {fileID: 11400000, guid: 93d9d1d953c41974ea3763694bb92bcf, type: 2}
  - m_RefCount: 1
    m_Data: {fileID: 11400000, guid: 0998506adc1c6bd4690778ed8e6842e4, type: 2}
  - m_RefCount: 1
    m_Data: {fileID: 11400000, guid: 8550d1a0002a69c4593e941577ff1260, type: 2}
  - m_RefCount: 1
    m_Data: {fileID: 11400000, guid: 24a397f003d8ba046aa25b98e0091152, type: 2}
  - m_RefCount: 1
    m_Data: {fileID: 11400000, guid: 9bed317a2cc9d254db24374ba9247cea, type: 2}
  - m_RefCount: 1
    m_Data: {fileID: 11400000, guid: d96d85ca6b6f4ee45b452129bd6117b6, type: 2}
  - m_RefCount: 1
    m_Data: {fileID: 11400000, guid: 65c230d143f581743854abb7454a730b, type: 2}
  - m_RefCount: 1
    m_Data: {fileID: 11400000, guid: 6bf62da4539cf774a81cd45140ffa39f, type: 2}
  - m_RefCount: 1
    m_Data: {fileID: 11400000, guid: 306e755e601d8794f98f85b647142469, type: 2}
  - m_RefCount: 1
    m_Data: {fileID: 11400000, guid: 261418804eee1db4193b52b16c34b460, type: 2}
  - m_RefCount: 1
    m_Data: {fileID: 11400000, guid: 423941330d240ce44b8639effb642a13, type: 2}
  - m_RefCount: 1
    m_Data: {fileID: 11400000, guid: 7dbc50757c626f44f92ae6de47e0d8a3, type: 2}
  - m_RefCount: 1
    m_Data: {fileID: 11400000, guid: 43e2f785029618d41bdcaa8674449608, type: 2}
  - m_RefCount: 1
    m_Data: {fileID: 11400000, guid: 1059f6bccfdd24a41a98d4fcce5c3480, type: 2}
  - m_RefCount: 1
    m_Data: {fileID: 11400000, guid: 8742fa60ad0a0994a97fbcd71d6b1ce2, type: 2}
  - m_RefCount: 1
    m_Data: {fileID: 11400000, guid: d2ba929ae2c4eb0478b017aac81b4780, type: 2}
  - m_RefCount: 1
    m_Data: {fileID: 11400000, guid: e99c084e5729b254b84968391d436f54, type: 2}
  - m_RefCount: 1
    m_Data: {fileID: 11400000, guid: a4914324dbedfab46aa172ffdde83c5d, type: 2}
  - m_RefCount: 1
    m_Data: {fileID: 11400000, guid: 5ddfa76bfc9b7134cba9b255eb223549, type: 2}
  - m_RefCount: 1
    m_Data: {fileID: 11400000, guid: eb49ebb6b680b7547ab6afd6c1f2239e, type: 2}
  - m_RefCount: 1
    m_Data: {fileID: 11400000, guid: 076a11a45bd92514595ec53c2c79adc1, type: 2}
  - m_RefCount: 1
    m_Data: {fileID: 11400000, guid: 8ff8d6bef4927974b8bb30c3018eecc2, type: 2}
  - m_RefCount: 1
    m_Data: {fileID: 11400000, guid: 9b7001455e431fa4881e78c0b1d7770b, type: 2}
  - m_RefCount: 1
    m_Data: {fileID: 11400000, guid: 2ce6e102c9a551a49af5709a51b2f3ab, type: 2}
  - m_RefCount: 1
    m_Data: {fileID: 11400000, guid: f924105f08cd7ab4caf5666c2f6a8535, type: 2}
  - m_RefCount: 1
    m_Data: {fileID: 11400000, guid: 69678191b77d72a439be53bdc4cb1f7d, type: 2}
  - m_RefCount: 1
    m_Data: {fileID: 11400000, guid: 444f6a63f8017a143bd5fc3079bd37f7, type: 2}
  - m_RefCount: 1
    m_Data: {fileID: 11400000, guid: 089d073dd762e57428f93ddb538265fc, type: 2}
  - m_RefCount: 1
    m_Data: {fileID: 11400000, guid: 4747ff9d3fc85f4498d6cf054065a827, type: 2}
  - m_RefCount: 1
    m_Data: {fileID: 11400000, guid: 7e582e142c3982d4f8fea2032c14705c, type: 2}
  - m_RefCount: 1
    m_Data: {fileID: 11400000, guid: 8842f17244f580748bc5cb1c73cc1f0c, type: 2}
  - m_RefCount: 1
    m_Data: {fileID: 11400000, guid: dc63d7639985a4d4fb93d5fd6258730d, type: 2}
  - m_RefCount: 1
    m_Data: {fileID: 11400000, guid: 44f9b0ef86984b7488f6503af23e24d9, type: 2}
  - m_RefCount: 1
    m_Data: {fileID: 11400000, guid: f03f36a30811d9e45b69da23e0500a33, type: 2}
  - m_RefCount: 1
    m_Data: {fileID: 11400000, guid: 03c71502b618a654b9afa022a7568bab, type: 2}
  - m_RefCount: 1
    m_Data: {fileID: 11400000, guid: ef946a677f489f54d8183007e9386d6b, type: 2}
  - m_RefCount: 1
    m_Data: {fileID: 11400000, guid: ead02ef5f8d2829428b679ac77d3857a, type: 2}
  - m_RefCount: 1
    m_Data: {fileID: 11400000, guid: b1e57dac1ea39c341a45dda8b6ca8036, type: 2}
  - m_RefCount: 1
    m_Data: {fileID: 11400000, guid: 1c25818e81c56984289c401c170b81fc, type: 2}
  - m_RefCount: 1
    m_Data: {fileID: 11400000, guid: c3f20898784ded644aeaec209c55303a, type: 2}
  - m_RefCount: 1
    m_Data: {fileID: 11400000, guid: cf0537256a94c7344980a3a1deed7c85, type: 2}
  - m_RefCount: 1
    m_Data: {fileID: 11400000, guid: a13a2a19e57c79e4e8e01940afcb31ba, type: 2}
  - m_RefCount: 1
    m_Data: {fileID: 11400000, guid: 5defcad315965d94da30cc31bd492ffd, type: 2}
  - m_RefCount: 1
    m_Data: {fileID: 11400000, guid: 119a0558289036c49bc6c4700c071712, type: 2}
  - m_RefCount: 1
    m_Data: {fileID: 11400000, guid: 82905a165d83e4d4484be5be4f5738b1, type: 2}
  - m_RefCount: 1
    m_Data: {fileID: 11400000, guid: b0bc42369f9f14748b65d6f91fbb9cea, type: 2}
  - m_RefCount: 1
    m_Data: {fileID: 11400000, guid: 6e0db04b8d3e49e45881ac73255d8ba4, type: 2}
  - m_RefCount: 1
    m_Data: {fileID: 11400000, guid: fdac5eb8b15dd9e4d9f0983cd2bb4e1b, type: 2}
  - m_RefCount: 1
    m_Data: {fileID: 11400000, guid: 7d85920a6ec71c942922159a3eebe6cd, type: 2}
  - m_RefCount: 1
    m_Data: {fileID: 11400000, guid: 05f72eda94112a646a1d0a8e005f76ef, type: 2}
  - m_RefCount: 1
    m_Data: {fileID: 11400000, guid: ff5ce2bbc580a1f4396227fb17043b7a, type: 2}
  - m_RefCount: 1
    m_Data: {fileID: 11400000, guid: ccf045c5e9eda3a4683b1136e1be7377, type: 2}
  - m_RefCount: 1
    m_Data: {fileID: 11400000, guid: 75c869722fe61934fb42247ec41a0f3f, type: 2}
  - m_RefCount: 1
    m_Data: {fileID: 11400000, guid: fdf5e30ab7b981a47ba2262c16504ce8, type: 2}
  - m_RefCount: 1
    m_Data: {fileID: 11400000, guid: a932397673b10ea4fb7abb9389301ac9, type: 2}
  - m_RefCount: 1
    m_Data: {fileID: 11400000, guid: c989b21011443a944936149b35ca31f8, type: 2}
  - m_RefCount: 1
    m_Data: {fileID: 11400000, guid: d379830caefdd4e4f9cc5c0831d26386, type: 2}
  - m_RefCount: 1
    m_Data: {fileID: 11400000, guid: 6c475a1d8d2a8d84ebe24aabb48d4b76, type: 2}
  - m_RefCount: 1
    m_Data: {fileID: 11400000, guid: 8bd8237b45765fd4b8a7e7a98895edce, type: 2}
  - m_RefCount: 1
    m_Data: {fileID: 11400000, guid: b8529397f649dc144b919fecb1855b1d, type: 2}
  - m_RefCount: 1
    m_Data: {fileID: 11400000, guid: 15d4c4afa5bc8bc4d9c4ce4e9633ef0b, type: 2}
  - m_RefCount: 1
    m_Data: {fileID: 11400000, guid: 151ee3b4ece58cf42be9d223e7ff0654, type: 2}
  - m_RefCount: 1
    m_Data: {fileID: 11400000, guid: 8b69c04e317db5b4cb66f28207286da4, type: 2}
  - m_RefCount: 1
    m_Data: {fileID: 11400000, guid: 634cef5231964744d9b87af97abb4ce2, type: 2}
  - m_RefCount: 1
    m_Data: {fileID: 11400000, guid: 669b731546af8be419c6ed5a1486a7e1, type: 2}
  - m_RefCount: 1
    m_Data: {fileID: 11400000, guid: 6c455cff2ba00bd4880939bfb6a56f36, type: 2}
  - m_RefCount: 1
    m_Data: {fileID: 11400000, guid: 3ad1fafc036f82d42a3d5426074e4e3f, type: 2}
  - m_RefCount: 1
    m_Data: {fileID: 11400000, guid: 851267d934b209a4786622ed2c3ce9fb, type: 2}
  - m_RefCount: 1
    m_Data: {fileID: 11400000, guid: ff7d73d250a4e6544b4502c8cd5c618e, type: 2}
  - m_RefCount: 1
    m_Data: {fileID: 11400000, guid: 506b287038b5b004ca966196825a90ec, type: 2}
  m_TileSpriteArray:
  - m_RefCount: 1
    m_Data: {fileID: -495215141973064099, guid: 3427e8ab98f85044d8cdff06b42e2ae0,
      type: 3}
  - m_RefCount: 1
    m_Data: {fileID: -1060080713516089567, guid: 3427e8ab98f85044d8cdff06b42e2ae0,
      type: 3}
  - m_RefCount: 1
    m_Data: {fileID: 2990443057539896228, guid: 3427e8ab98f85044d8cdff06b42e2ae0,
      type: 3}
  - m_RefCount: 1
    m_Data: {fileID: 1438789884947901028, guid: 4c2ec102a85a8f44e98d6e19d27a09ca,
      type: 3}
  - m_RefCount: 1
    m_Data: {fileID: -6028870538456292964, guid: 4c2ec102a85a8f44e98d6e19d27a09ca,
      type: 3}
  - m_RefCount: 1
    m_Data: {fileID: 5796245760215057757, guid: 4c2ec102a85a8f44e98d6e19d27a09ca,
      type: 3}
  - m_RefCount: 1
    m_Data: {fileID: 7230353612770242267, guid: 4c2ec102a85a8f44e98d6e19d27a09ca,
      type: 3}
  - m_RefCount: 1
    m_Data: {fileID: -7790964471572860716, guid: 4c2ec102a85a8f44e98d6e19d27a09ca,
      type: 3}
  - m_RefCount: 1
    m_Data: {fileID: 3991314481410526359, guid: 4c2ec102a85a8f44e98d6e19d27a09ca,
      type: 3}
  - m_RefCount: 1
    m_Data: {fileID: 5204086376496650293, guid: 4c2ec102a85a8f44e98d6e19d27a09ca,
      type: 3}
  - m_RefCount: 1
    m_Data: {fileID: 7547361969308224269, guid: 4c2ec102a85a8f44e98d6e19d27a09ca,
      type: 3}
  - m_RefCount: 1
    m_Data: {fileID: 5889748905199024304, guid: 4c2ec102a85a8f44e98d6e19d27a09ca,
      type: 3}
  - m_RefCount: 1
    m_Data: {fileID: 1641492104814913404, guid: 4c2ec102a85a8f44e98d6e19d27a09ca,
      type: 3}
  - m_RefCount: 1
    m_Data: {fileID: 4532232959293363712, guid: 4c2ec102a85a8f44e98d6e19d27a09ca,
      type: 3}
  - m_RefCount: 1
    m_Data: {fileID: 1125387090648134891, guid: 4c2ec102a85a8f44e98d6e19d27a09ca,
      type: 3}
  - m_RefCount: 1
    m_Data: {fileID: 2661657226660647229, guid: 4c2ec102a85a8f44e98d6e19d27a09ca,
      type: 3}
  - m_RefCount: 1
    m_Data: {fileID: -3925563117405617504, guid: 4c2ec102a85a8f44e98d6e19d27a09ca,
      type: 3}
  - m_RefCount: 1
    m_Data: {fileID: 191941736727188890, guid: d97b72b5ffdc75b4d9869e9a5ac7a5a5, type: 3}
  - m_RefCount: 1
    m_Data: {fileID: 2644806242462666292, guid: d97b72b5ffdc75b4d9869e9a5ac7a5a5,
      type: 3}
  - m_RefCount: 1
    m_Data: {fileID: -4204362421629292721, guid: 4c2ec102a85a8f44e98d6e19d27a09ca,
      type: 3}
  - m_RefCount: 1
    m_Data: {fileID: -1785065636892153416, guid: 4c2ec102a85a8f44e98d6e19d27a09ca,
      type: 3}
  - m_RefCount: 1
    m_Data: {fileID: -4853054914428217801, guid: 4c2ec102a85a8f44e98d6e19d27a09ca,
      type: 3}
  - m_RefCount: 1
    m_Data: {fileID: 2906897528493449947, guid: d97b72b5ffdc75b4d9869e9a5ac7a5a5,
      type: 3}
  - m_RefCount: 1
    m_Data: {fileID: -2044763207028821023, guid: d97b72b5ffdc75b4d9869e9a5ac7a5a5,
      type: 3}
  - m_RefCount: 1
    m_Data: {fileID: -9080107543781548350, guid: 99737b414a34d8a48adfe8806ebe473d,
      type: 3}
  - m_RefCount: 1
    m_Data: {fileID: 5584463282232488743, guid: 99737b414a34d8a48adfe8806ebe473d,
      type: 3}
  - m_RefCount: 1
    m_Data: {fileID: 1686816118416969253, guid: 99737b414a34d8a48adfe8806ebe473d,
      type: 3}
  - m_RefCount: 1
    m_Data: {fileID: -967360542194079799, guid: 99737b414a34d8a48adfe8806ebe473d,
      type: 3}
  - m_RefCount: 1
    m_Data: {fileID: -9200365912197951251, guid: 99737b414a34d8a48adfe8806ebe473d,
      type: 3}
  - m_RefCount: 1
    m_Data: {fileID: 5886076231743644134, guid: 99737b414a34d8a48adfe8806ebe473d,
      type: 3}
  - m_RefCount: 1
    m_Data: {fileID: -938129380186869084, guid: 99737b414a34d8a48adfe8806ebe473d,
      type: 3}
  - m_RefCount: 1
    m_Data: {fileID: -2425985901954244456, guid: 99737b414a34d8a48adfe8806ebe473d,
      type: 3}
  - m_RefCount: 1
    m_Data: {fileID: -5572687216668380682, guid: 99737b414a34d8a48adfe8806ebe473d,
      type: 3}
  - m_RefCount: 1
    m_Data: {fileID: -7042949476929854854, guid: 99737b414a34d8a48adfe8806ebe473d,
      type: 3}
  - m_RefCount: 1
    m_Data: {fileID: -572344713737210368, guid: 99737b414a34d8a48adfe8806ebe473d,
      type: 3}
  - m_RefCount: 1
    m_Data: {fileID: 1501465061368457220, guid: 99737b414a34d8a48adfe8806ebe473d,
      type: 3}
  - m_RefCount: 1
    m_Data: {fileID: 4383407390152984945, guid: 99737b414a34d8a48adfe8806ebe473d,
      type: 3}
  - m_RefCount: 1
    m_Data: {fileID: -172568790470994190, guid: 99737b414a34d8a48adfe8806ebe473d,
      type: 3}
  - m_RefCount: 1
    m_Data: {fileID: 762669873139012137, guid: 99737b414a34d8a48adfe8806ebe473d, type: 3}
  - m_RefCount: 2
    m_Data: {fileID: -9109134535479314518, guid: 99737b414a34d8a48adfe8806ebe473d,
      type: 3}
  - m_RefCount: 1
    m_Data: {fileID: 7587329082067728804, guid: 99737b414a34d8a48adfe8806ebe473d,
      type: 3}
  - m_RefCount: 1
    m_Data: {fileID: -6864798692638210337, guid: 99737b414a34d8a48adfe8806ebe473d,
      type: 3}
  - m_RefCount: 1
    m_Data: {fileID: -6143168416603343435, guid: 99737b414a34d8a48adfe8806ebe473d,
      type: 3}
  - m_RefCount: 1
    m_Data: {fileID: -1662178021196323105, guid: 99737b414a34d8a48adfe8806ebe473d,
      type: 3}
  - m_RefCount: 1
    m_Data: {fileID: -5704733359313317330, guid: 99737b414a34d8a48adfe8806ebe473d,
      type: 3}
  - m_RefCount: 1
    m_Data: {fileID: -1819068923876900089, guid: 99737b414a34d8a48adfe8806ebe473d,
      type: 3}
  - m_RefCount: 1
    m_Data: {fileID: -5121840882623822852, guid: 99737b414a34d8a48adfe8806ebe473d,
      type: 3}
  - m_RefCount: 1
    m_Data: {fileID: -3861048188610095045, guid: 7e5a054dcf3150c48b70c7dd21c960e0,
      type: 3}
  - m_RefCount: 1
    m_Data: {fileID: 3020136911314495625, guid: 99737b414a34d8a48adfe8806ebe473d,
      type: 3}
  - m_RefCount: 2
    m_Data: {fileID: -6730502161423479965, guid: 99737b414a34d8a48adfe8806ebe473d,
      type: 3}
  - m_RefCount: 1
    m_Data: {fileID: 378424659170294610, guid: 99737b414a34d8a48adfe8806ebe473d, type: 3}
  - m_RefCount: 1
    m_Data: {fileID: -879374988528590083, guid: 99737b414a34d8a48adfe8806ebe473d,
      type: 3}
  - m_RefCount: 1
    m_Data: {fileID: 9180986112231904678, guid: 99737b414a34d8a48adfe8806ebe473d,
      type: 3}
  - m_RefCount: 1
    m_Data: {fileID: -6297879118576548162, guid: 99737b414a34d8a48adfe8806ebe473d,
      type: 3}
  - m_RefCount: 1
    m_Data: {fileID: -7517810300919496488, guid: 99737b414a34d8a48adfe8806ebe473d,
      type: 3}
  - m_RefCount: 1
    m_Data: {fileID: -168740401626103001, guid: 99737b414a34d8a48adfe8806ebe473d,
      type: 3}
  - m_RefCount: 1
    m_Data: {fileID: -69742843841909031, guid: 99737b414a34d8a48adfe8806ebe473d, type: 3}
  - m_RefCount: 1
    m_Data: {fileID: -7176460365434453370, guid: 99737b414a34d8a48adfe8806ebe473d,
      type: 3}
  - m_RefCount: 1
    m_Data: {fileID: 6466625899952297109, guid: 99737b414a34d8a48adfe8806ebe473d,
      type: 3}
  - m_RefCount: 1
    m_Data: {fileID: 9148735900108772628, guid: 99737b414a34d8a48adfe8806ebe473d,
      type: 3}
  - m_RefCount: 1
    m_Data: {fileID: -3239360086991141308, guid: 99737b414a34d8a48adfe8806ebe473d,
      type: 3}
  - m_RefCount: 1
    m_Data: {fileID: -9091492930087767703, guid: 99737b414a34d8a48adfe8806ebe473d,
      type: 3}
  - m_RefCount: 1
    m_Data: {fileID: -6816423562950983313, guid: 99737b414a34d8a48adfe8806ebe473d,
      type: 3}
  - m_RefCount: 1
    m_Data: {fileID: 6966221582370126225, guid: 99737b414a34d8a48adfe8806ebe473d,
      type: 3}
  - m_RefCount: 1
    m_Data: {fileID: 7714532165828953436, guid: 99737b414a34d8a48adfe8806ebe473d,
      type: 3}
  - m_RefCount: 1
    m_Data: {fileID: 2745726208823032845, guid: 99737b414a34d8a48adfe8806ebe473d,
      type: 3}
  - m_RefCount: 1
    m_Data: {fileID: -6215527812232946425, guid: 99737b414a34d8a48adfe8806ebe473d,
      type: 3}
  - m_RefCount: 1
    m_Data: {fileID: -1569933146601365554, guid: 3427e8ab98f85044d8cdff06b42e2ae0,
      type: 3}
  - m_RefCount: 1
    m_Data: {fileID: -6358608869827684446, guid: 3427e8ab98f85044d8cdff06b42e2ae0,
      type: 3}
  - m_RefCount: 1
    m_Data: {fileID: 2988799375980105856, guid: 3427e8ab98f85044d8cdff06b42e2ae0,
      type: 3}
  - m_RefCount: 1
    m_Data: {fileID: 6260162421507589299, guid: 7e5a054dcf3150c48b70c7dd21c960e0,
      type: 3}
  - m_RefCount: 1
    m_Data: {fileID: 8672123283656860946, guid: 7e5a054dcf3150c48b70c7dd21c960e0,
      type: 3}
  - m_RefCount: 1
    m_Data: {fileID: -1958624129082688233, guid: 99737b414a34d8a48adfe8806ebe473d,
      type: 3}
  - m_RefCount: 1
    m_Data: {fileID: 768747628526831211, guid: 7e5a054dcf3150c48b70c7dd21c960e0, type: 3}
  - m_RefCount: 1
    m_Data: {fileID: 3501276909863707669, guid: 7e5a054dcf3150c48b70c7dd21c960e0,
      type: 3}
  - m_RefCount: 1
    m_Data: {fileID: -4448956770062678194, guid: 7e5a054dcf3150c48b70c7dd21c960e0,
      type: 3}
  - m_RefCount: 1
    m_Data: {fileID: -877059655726756360, guid: 7e5a054dcf3150c48b70c7dd21c960e0,
      type: 3}
  - m_RefCount: 1
    m_Data: {fileID: -726986586176349463, guid: 7e5a054dcf3150c48b70c7dd21c960e0,
      type: 3}
  - m_RefCount: 1
    m_Data: {fileID: 7618288257126275758, guid: d97b72b5ffdc75b4d9869e9a5ac7a5a5,
      type: 3}
  - m_RefCount: 1
    m_Data: {fileID: 492791130329662655, guid: d97b72b5ffdc75b4d9869e9a5ac7a5a5, type: 3}
  - m_RefCount: 1
    m_Data: {fileID: -3100584317468807204, guid: d97b72b5ffdc75b4d9869e9a5ac7a5a5,
      type: 3}
  - m_RefCount: 1
    m_Data: {fileID: -749107028965738379, guid: d97b72b5ffdc75b4d9869e9a5ac7a5a5,
      type: 3}
  - m_RefCount: 1
    m_Data: {fileID: -5661879551736585851, guid: d97b72b5ffdc75b4d9869e9a5ac7a5a5,
      type: 3}
  - m_RefCount: 1
    m_Data: {fileID: -4440127431456745721, guid: d97b72b5ffdc75b4d9869e9a5ac7a5a5,
      type: 3}
  - m_RefCount: 1
    m_Data: {fileID: -8408339530631789079, guid: d97b72b5ffdc75b4d9869e9a5ac7a5a5,
      type: 3}
  - m_RefCount: 1
    m_Data: {fileID: -1737220200708315483, guid: d97b72b5ffdc75b4d9869e9a5ac7a5a5,
      type: 3}
  - m_RefCount: 1
    m_Data: {fileID: -1716696919041361915, guid: d97b72b5ffdc75b4d9869e9a5ac7a5a5,
      type: 3}
  - m_RefCount: 1
    m_Data: {fileID: 2669473999435503226, guid: d97b72b5ffdc75b4d9869e9a5ac7a5a5,
      type: 3}
  - m_RefCount: 1
    m_Data: {fileID: 103798648339352818, guid: d97b72b5ffdc75b4d9869e9a5ac7a5a5, type: 3}
  - m_RefCount: 1
    m_Data: {fileID: -4017358725567895159, guid: d97b72b5ffdc75b4d9869e9a5ac7a5a5,
      type: 3}
  - m_RefCount: 1
    m_Data: {fileID: 34960597077287717, guid: 99737b414a34d8a48adfe8806ebe473d, type: 3}
  - m_RefCount: 1
    m_Data: {fileID: 2775512623737116611, guid: 4c2ec102a85a8f44e98d6e19d27a09ca,
      type: 3}
  - m_RefCount: 1
    m_Data: {fileID: 3987908084115897762, guid: 4c2ec102a85a8f44e98d6e19d27a09ca,
      type: 3}
  - m_RefCount: 1
    m_Data: {fileID: -212642755272443622, guid: 4c2ec102a85a8f44e98d6e19d27a09ca,
      type: 3}
  - m_RefCount: 1
    m_Data: {fileID: -6249504441017887560, guid: d97b72b5ffdc75b4d9869e9a5ac7a5a5,
      type: 3}
  - m_RefCount: 1
    m_Data: {fileID: 1834576154975188552, guid: d97b72b5ffdc75b4d9869e9a5ac7a5a5,
      type: 3}
  - m_RefCount: 1
    m_Data: {fileID: 21300000, guid: 87ab220ea42505044bff03045838ae9f, type: 3}
  - m_RefCount: 1
    m_Data: {fileID: -8657673441336929519, guid: d97b72b5ffdc75b4d9869e9a5ac7a5a5,
      type: 3}
  m_TileMatrixArray:
  - m_RefCount: 100
    m_Data:
      e00: 1
      e01: 0
      e02: 0
      e03: 0
      e10: 0
      e11: 1
      e12: 0
      e13: 0
      e20: 0
      e21: 0
      e22: 1
      e23: 0
      e30: 0
      e31: 0
      e32: 0
      e33: 1
  m_TileColorArray:
  - m_RefCount: 100
    m_Data: {r: 1, g: 1, b: 1, a: 1}
  m_AnimationFrameRate: 1
  m_Color: {r: 1, g: 1, b: 1, a: 1}
  m_Origin: {x: -8, y: -12, z: 0}
  m_Size: {x: 15, y: 13, z: 1}
  m_TileAnchor: {x: 0.5, y: 0.5, z: 0}
  m_TileOrientation: 0
  m_TileOrientationMatrix:
    e00: 1
    e01: 0
    e02: 0
    e03: 0
    e10: 0
    e11: 1
    e12: 0
    e13: 0
    e20: 0
    e21: 0
    e22: 1
    e23: 0
    e30: 0
    e31: 0
    e32: 0
    e33: 1
--- !u!483693784 &8072097720719916784
TilemapRenderer:
  m_ObjectHideFlags: 0
  m_CorrespondingSourceObject: {fileID: 0}
  m_PrefabInstance: {fileID: 0}
  m_PrefabAsset: {fileID: 0}
  m_GameObject: {fileID: 7618605383737270205}
  m_Enabled: 0
  m_CastShadows: 0
  m_ReceiveShadows: 0
  m_DynamicOccludee: 0
  m_MotionVectors: 1
  m_LightProbeUsage: 0
  m_ReflectionProbeUsage: 0
  m_RenderingLayerMask: 1
  m_RendererPriority: 0
  m_Materials:
  - {fileID: 10754, guid: 0000000000000000f000000000000000, type: 0}
  m_StaticBatchInfo:
    firstSubMesh: 0
    subMeshCount: 0
  m_StaticBatchRoot: {fileID: 0}
  m_ProbeAnchor: {fileID: 0}
  m_LightProbeVolumeOverride: {fileID: 0}
  m_ScaleInLightmap: 1
  m_ReceiveGI: 1
  m_PreserveUVs: 0
  m_IgnoreNormalsForChartDetection: 0
  m_ImportantGI: 0
  m_StitchLightmapSeams: 1
  m_SelectedEditorRenderState: 0
  m_MinimumChartSize: 4
  m_AutoUVMaxDistance: 0.5
  m_AutoUVMaxAngle: 89
  m_LightmapParameters: {fileID: 0}
  m_SortingLayerID: 0
  m_SortingLayer: 0
  m_SortingOrder: 0
  m_ChunkSize: {x: 32, y: 32, z: 32}
  m_ChunkCullingBounds: {x: 0, y: 0, z: 0}
  m_MaxChunkCount: 16
  m_MaxFrameAge: 16
  m_SortOrder: 0
  m_Mode: 0
  m_DetectChunkCullingBounds: 0
  m_MaskInteraction: 0
--- !u!114 &-2914809676317514180
MonoBehaviour:
  m_ObjectHideFlags: 0
  m_CorrespondingSourceObject: {fileID: 0}
  m_PrefabInstance: {fileID: 0}
  m_PrefabAsset: {fileID: 0}
  m_GameObject: {fileID: 0}
  m_Enabled: 1
  m_EditorHideFlags: 0
  m_Script: {fileID: 12395, guid: 0000000000000000e000000000000000, type: 0}
  m_Name: Palette Settings
  m_EditorClassIdentifier: 
  cellSizing: 0
