%YAML 1.1
%TAG !u! tag:unity3d.com,2011:
--- !u!687078895 &4343727234628468602
SpriteAtlas:
  m_ObjectHideFlags: 0
  m_CorrespondingSourceObject: {fileID: 0}
  m_PrefabInstance: {fileID: 0}
  m_PrefabAsset: {fileID: 0}
  m_Name: Game Sprite Atlas
  m_EditorData:
    serializedVersion: 2
    textureSettings:
      serializedVersion: 2
      anisoLevel: 1
      compressionQuality: 50
      maxTextureSize: 2048
      textureCompression: 0
      filterMode: 0
      generateMipMaps: 0
      readable: 0
      crunchedCompression: 0
      sRGB: 1
    platformSettings:
    - serializedVersion: 3
      m_BuildTarget: Android
      m_MaxTextureSize: 4096
      m_ResizeAlgorithm: 0
      m_TextureFormat: 47
      m_TextureCompression: 1
      m_CompressionQuality: 50
      m_CrunchedCompression: 0
      m_AllowsAlphaSplitting: 0
      m_Overridden: 1
      m_AndroidETC2FallbackOverride: 0
      m_ForceMaximumCompressionQuality_BC6H_BC7: 0
    packingSettings:
      serializedVersion: 2
      padding: 4
      blockOffset: 1
      allowAlphaSplitting: 0
      enableRotation: 0
      enableTightPacking: 0
    variantMultiplier: 1
    packables:
    - {fileID: 102900000, guid: c166846ec00a26440a07d31306350510, type: 3}
    totalSpriteSurfaceArea: 26433784
    bindAsDefault: 1
  m_MasterAtlas: {fileID: 0}
  m_PackedSprites:
  - {fileID: 21300000, guid: f1919200c35307e4585a621b8386bb10, type: 3}
  - {fileID: 21300000, guid: 6b775d00aa36016469e343f75a8e64e0, type: 3}
  - {fileID: 21300000, guid: 9bce9e00763c65d4083c88cf1ac2dec7, type: 3}
  - {fileID: 21300000, guid: 6956a810819a90b4fb59e12f5f4a233b, type: 3}
  - {fileID: 21300000, guid: 5c05a630a9104dd40b77328776d10410, type: 3}
  - {fileID: 21300000, guid: f27a6d30e7ed2cd4cb35fbe835c71170, type: 3}
  - {fileID: 21300000, guid: 9fb066602403787449265a0818046469, type: 3}
  - {fileID: 21300000, guid: 14b0d37040f67cc46a026a659c8baca3, type: 3}
  - {fileID: 21300000, guid: e9fb1b80297880d4eb4a2898c3bd9703, type: 3}
  - {fileID: 21300000, guid: 8c6c44901de1107478ad03eb2809306c, type: 3}
  - {fileID: 21300000, guid: 8fc87fa0193ad02458b85f589c4e79eb, type: 3}
  - {fileID: 21300000, guid: adedabe05c3366949abb51778c34f99a, type: 3}
  - {fileID: 21300000, guid: 09b7b01115e23b94aa1bf867def36591, type: 3}
  - {fileID: -7042949476929854854, guid: 99737b414a34d8a48adfe8806ebe473d, type: 3}
  - {fileID: 4383407390152984945, guid: 99737b414a34d8a48adfe8806ebe473d, type: 3}
  - {fileID: 1501465061368457220, guid: 99737b414a34d8a48adfe8806ebe473d, type: 3}
  - {fileID: -572344713737210368, guid: 99737b414a34d8a48adfe8806ebe473d, type: 3}
  - {fileID: 7587329082067728804, guid: 99737b414a34d8a48adfe8806ebe473d, type: 3}
  - {fileID: -9109134535479314518, guid: 99737b414a34d8a48adfe8806ebe473d, type: 3}
  - {fileID: 762669873139012137, guid: 99737b414a34d8a48adfe8806ebe473d, type: 3}
  - {fileID: -172568790470994190, guid: 99737b414a34d8a48adfe8806ebe473d, type: 3}
  - {fileID: -6864798692638210337, guid: 99737b414a34d8a48adfe8806ebe473d, type: 3}
  - {fileID: -1662178021196323105, guid: 99737b414a34d8a48adfe8806ebe473d, type: 3}
  - {fileID: 34960597077287717, guid: 99737b414a34d8a48adfe8806ebe473d, type: 3}
  - {fileID: -9080107543781548350, guid: 99737b414a34d8a48adfe8806ebe473d, type: 3}
  - {fileID: 5584463282232488743, guid: 99737b414a34d8a48adfe8806ebe473d, type: 3}
  - {fileID: 1686816118416969253, guid: 99737b414a34d8a48adfe8806ebe473d, type: 3}
  - {fileID: -967360542194079799, guid: 99737b414a34d8a48adfe8806ebe473d, type: 3}
  - {fileID: -9200365912197951251, guid: 99737b414a34d8a48adfe8806ebe473d, type: 3}
  - {fileID: 5886076231743644134, guid: 99737b414a34d8a48adfe8806ebe473d, type: 3}
  - {fileID: -938129380186869084, guid: 99737b414a34d8a48adfe8806ebe473d, type: 3}
  - {fileID: -2425985901954244456, guid: 99737b414a34d8a48adfe8806ebe473d, type: 3}
  - {fileID: -5572687216668380682, guid: 99737b414a34d8a48adfe8806ebe473d, type: 3}
  - {fileID: -1819068923876900089, guid: 99737b414a34d8a48adfe8806ebe473d, type: 3}
  - {fileID: -6730502161423479965, guid: 99737b414a34d8a48adfe8806ebe473d, type: 3}
  - {fileID: 3020136911314495625, guid: 99737b414a34d8a48adfe8806ebe473d, type: 3}
  - {fileID: -1958624129082688233, guid: 99737b414a34d8a48adfe8806ebe473d, type: 3}
  - {fileID: -3239360086991141308, guid: 99737b414a34d8a48adfe8806ebe473d, type: 3}
  - {fileID: 378424659170294610, guid: 99737b414a34d8a48adfe8806ebe473d, type: 3}
  - {fileID: -9091492930087767703, guid: 99737b414a34d8a48adfe8806ebe473d, type: 3}
  - {fileID: -5121840882623822852, guid: 99737b414a34d8a48adfe8806ebe473d, type: 3}
  - {fileID: -5704733359313317330, guid: 99737b414a34d8a48adfe8806ebe473d, type: 3}
  - {fileID: -6143168416603343435, guid: 99737b414a34d8a48adfe8806ebe473d, type: 3}
  - {fileID: -7517810300919496488, guid: 99737b414a34d8a48adfe8806ebe473d, type: 3}
  - {fileID: -6297879118576548162, guid: 99737b414a34d8a48adfe8806ebe473d, type: 3}
  - {fileID: -69742843841909031, guid: 99737b414a34d8a48adfe8806ebe473d, type: 3}
  - {fileID: 9180986112231904678, guid: 99737b414a34d8a48adfe8806ebe473d, type: 3}
  - {fileID: -7176460365434453370, guid: 99737b414a34d8a48adfe8806ebe473d, type: 3}
  - {fileID: -879374988528590083, guid: 99737b414a34d8a48adfe8806ebe473d, type: 3}
  - {fileID: -6816423562950983313, guid: 99737b414a34d8a48adfe8806ebe473d, type: 3}
  - {fileID: -168740401626103001, guid: 99737b414a34d8a48adfe8806ebe473d, type: 3}
  - {fileID: 6466625899952297109, guid: 99737b414a34d8a48adfe8806ebe473d, type: 3}
  - {fileID: 9148735900108772628, guid: 99737b414a34d8a48adfe8806ebe473d, type: 3}
  - {fileID: 7714532165828953436, guid: 99737b414a34d8a48adfe8806ebe473d, type: 3}
  - {fileID: 6966221582370126225, guid: 99737b414a34d8a48adfe8806ebe473d, type: 3}
  - {fileID: -6215527812232946425, guid: 99737b414a34d8a48adfe8806ebe473d, type: 3}
  - {fileID: 2745726208823032845, guid: 99737b414a34d8a48adfe8806ebe473d, type: 3}
  - {fileID: 21300000, guid: 1a46955137e1ffb4b8917088112bea8f, type: 3}
  - {fileID: 21300000, guid: 59b82c618af97dd43ae99c68386901dc, type: 3}
  - {fileID: 21300000, guid: 95204971be215784ca0b6e2c1a813d3c, type: 3}
  - {fileID: 21300000, guid: 95cc5f81aa120d64aabfa2ffc8095845, type: 3}
  - {fileID: 21300000, guid: 900ab891ab7c1c047b18454fe9d5cf41, type: 3}
  - {fileID: 21300000, guid: 6ae79fb197989a148b79692325c3d7b5, type: 3}
  - {fileID: 21300000, guid: f4549bd105b2ade479b7b6d82e2d3c8b, type: 3}
  - {fileID: -7790964471572860716, guid: 4c2ec102a85a8f44e98d6e19d27a09ca, type: 3}
  - {fileID: 3991314481410526359, guid: 4c2ec102a85a8f44e98d6e19d27a09ca, type: 3}
  - {fileID: 5204086376496650293, guid: 4c2ec102a85a8f44e98d6e19d27a09ca, type: 3}
  - {fileID: 1641492104814913404, guid: 4c2ec102a85a8f44e98d6e19d27a09ca, type: 3}
  - {fileID: 1438789884947901028, guid: 4c2ec102a85a8f44e98d6e19d27a09ca, type: 3}
  - {fileID: -6028870538456292964, guid: 4c2ec102a85a8f44e98d6e19d27a09ca, type: 3}
  - {fileID: 5796245760215057757, guid: 4c2ec102a85a8f44e98d6e19d27a09ca, type: 3}
  - {fileID: 7230353612770242267, guid: 4c2ec102a85a8f44e98d6e19d27a09ca, type: 3}
  - {fileID: 7547361969308224269, guid: 4c2ec102a85a8f44e98d6e19d27a09ca, type: 3}
  - {fileID: 1125387090648134891, guid: 4c2ec102a85a8f44e98d6e19d27a09ca, type: 3}
  - {fileID: 316048659634188571, guid: 4c2ec102a85a8f44e98d6e19d27a09ca, type: 3}
  - {fileID: -5864756972246599335, guid: 4c2ec102a85a8f44e98d6e19d27a09ca, type: 3}
  - {fileID: 4532232959293363712, guid: 4c2ec102a85a8f44e98d6e19d27a09ca, type: 3}
  - {fileID: 5889748905199024304, guid: 4c2ec102a85a8f44e98d6e19d27a09ca, type: 3}
  - {fileID: -3925563117405617504, guid: 4c2ec102a85a8f44e98d6e19d27a09ca, type: 3}
  - {fileID: 2661657226660647229, guid: 4c2ec102a85a8f44e98d6e19d27a09ca, type: 3}
  - {fileID: -5799766653605741804, guid: 4c2ec102a85a8f44e98d6e19d27a09ca, type: 3}
  - {fileID: 2775512623737116611, guid: 4c2ec102a85a8f44e98d6e19d27a09ca, type: 3}
  - {fileID: -4204362421629292721, guid: 4c2ec102a85a8f44e98d6e19d27a09ca, type: 3}
  - {fileID: 3987908084115897762, guid: 4c2ec102a85a8f44e98d6e19d27a09ca, type: 3}
  - {fileID: -4853054914428217801, guid: 4c2ec102a85a8f44e98d6e19d27a09ca, type: 3}
  - {fileID: -212642755272443622, guid: 4c2ec102a85a8f44e98d6e19d27a09ca, type: 3}
  - {fileID: -1785065636892153416, guid: 4c2ec102a85a8f44e98d6e19d27a09ca, type: 3}
  - {fileID: 21300000, guid: 96e0ac0235b74f64bb20f6ea97507b8f, type: 3}
  - {fileID: 21300000, guid: d92ecf1288161a7458c6d328999c17cb, type: 3}
  - {fileID: 21300000, guid: bb05fb32a95a6a045a0f92f057e4c99c, type: 3}
  - {fileID: 21300000, guid: 55927142805380946b8d8dac2bb97598, type: 3}
  - {fileID: 21300000, guid: ed0fc942050c2e04e8a81c821902e2d2, type: 3}
  - {fileID: 21300000, guid: 33f6f06231562e743b87276e3662a023, type: 3}
  - {fileID: 21300000, guid: 82f22862380a98544882f458ffe470f8, type: 3}
  - {fileID: 21300000, guid: 26800982f99dcd14a9636445517250b1, type: 3}
  - {fileID: 21300000, guid: 30156aa2c641e8847996fb66485d0f1a, type: 3}
  - {fileID: 21300000, guid: a16aafb28b998b849af18dbdccc27898, type: 3}
  - {fileID: 21300000, guid: 80c823d28166c124e8eb86b2355826d1, type: 3}
  - {fileID: 21300000, guid: 879670e24fc642c4f9017c6074a0827c, type: 3}
  - {fileID: 21300000, guid: 00eec413ea205ab489ba7ca2b19a7f9e, type: 3}
  - {fileID: 21300000, guid: 48eead23e4fdab94fb54b03712053a83, type: 3}
  - {fileID: 21300000, guid: 52268873d3346ab48a0c5262a6164e28, type: 3}
  - {fileID: 21300000, guid: 986fca8325b5ab748abcfce90e3fe93c, type: 3}
  - {fileID: 21300000, guid: 74bb9fd30e182784da63183ff689883a, type: 3}
  - {fileID: 21300000, guid: 932470e3881ac644c9a2620665f1114e, type: 3}
  - {fileID: 21300000, guid: 86925c0447f5bc448bcc9deb882f829d, type: 3}
  - {fileID: 21300000, guid: 3a09e3245cbed464baeb0105d8507104, type: 3}
  - {fileID: 21300000, guid: bc4b8d34b40b7fd4c8fcc21b5e032dc9, type: 3}
  - {fileID: 21300000, guid: 9d613254dcfa6fe4dafe8fb538d034ae, type: 3}
  - {fileID: 21300000, guid: 81a4b8946ccbcbe47aaf47c0ef7857b1, type: 3}
  - {fileID: 21300000, guid: 7eaf36b426359cb44afaa2a3b8c3f409, type: 3}
  - {fileID: 21300000, guid: 89ee80d47e052ef438f445ebe5fe72ab, type: 3}
  - {fileID: 21300000, guid: eb7991d460efe7948acb75045b6b4cc7, type: 3}
  - {fileID: 21300000, guid: 941a63d46d777704e9e1b18bc73cf607, type: 3}
  - {fileID: 21300000, guid: 3597dce4edcc8964a8317e7d59697812, type: 3}
  - {fileID: 21300000, guid: 2f95b7f49d22cca40ab02a4a77b06007, type: 3}
  - {fileID: 21300000, guid: 7359a2053fadeed44bf6b347d3f9d5ec, type: 3}
  - {fileID: 21300000, guid: 17209f553225db54eb29980efb8ea60b, type: 3}
  - {fileID: 21300000, guid: e60e727547e1bb044bdbfc612def2e54, type: 3}
  - {fileID: 21300000, guid: bf10caa5d158d3b4cade5ed09928e124, type: 3}
  - {fileID: 81926720765371366, guid: d97b72b5ffdc75b4d9869e9a5ac7a5a5, type: 3}
  - {fileID: -8278313820757341627, guid: d97b72b5ffdc75b4d9869e9a5ac7a5a5, type: 3}
  - {fileID: 7503078874047420344, guid: d97b72b5ffdc75b4d9869e9a5ac7a5a5, type: 3}
  - {fileID: 4596083932069072933, guid: d97b72b5ffdc75b4d9869e9a5ac7a5a5, type: 3}
  - {fileID: 1834576154975188552, guid: d97b72b5ffdc75b4d9869e9a5ac7a5a5, type: 3}
  - {fileID: -7594453519776507973, guid: d97b72b5ffdc75b4d9869e9a5ac7a5a5, type: 3}
  - {fileID: -1737220200708315483, guid: d97b72b5ffdc75b4d9869e9a5ac7a5a5, type: 3}
  - {fileID: -1716696919041361915, guid: d97b72b5ffdc75b4d9869e9a5ac7a5a5, type: 3}
  - {fileID: -2838782495369671528, guid: d97b72b5ffdc75b4d9869e9a5ac7a5a5, type: 3}
  - {fileID: -8408339530631789079, guid: d97b72b5ffdc75b4d9869e9a5ac7a5a5, type: 3}
  - {fileID: -6249504441017887560, guid: d97b72b5ffdc75b4d9869e9a5ac7a5a5, type: 3}
  - {fileID: -4017358725567895159, guid: d97b72b5ffdc75b4d9869e9a5ac7a5a5, type: 3}
  - {fileID: 103798648339352818, guid: d97b72b5ffdc75b4d9869e9a5ac7a5a5, type: 3}
  - {fileID: 2669473999435503226, guid: d97b72b5ffdc75b4d9869e9a5ac7a5a5, type: 3}
  - {fileID: 5408415560915331891, guid: d97b72b5ffdc75b4d9869e9a5ac7a5a5, type: 3}
  - {fileID: -4253740489203660619, guid: d97b72b5ffdc75b4d9869e9a5ac7a5a5, type: 3}
  - {fileID: 321441326304227561, guid: d97b72b5ffdc75b4d9869e9a5ac7a5a5, type: 3}
  - {fileID: -8657673441336929519, guid: d97b72b5ffdc75b4d9869e9a5ac7a5a5, type: 3}
  - {fileID: 2644806242462666292, guid: d97b72b5ffdc75b4d9869e9a5ac7a5a5, type: 3}
  - {fileID: 191941736727188890, guid: d97b72b5ffdc75b4d9869e9a5ac7a5a5, type: 3}
  - {fileID: -2044763207028821023, guid: d97b72b5ffdc75b4d9869e9a5ac7a5a5, type: 3}
  - {fileID: 2906897528493449947, guid: d97b72b5ffdc75b4d9869e9a5ac7a5a5, type: 3}
  - {fileID: -749107028965738379, guid: d97b72b5ffdc75b4d9869e9a5ac7a5a5, type: 3}
  - {fileID: -3100584317468807204, guid: d97b72b5ffdc75b4d9869e9a5ac7a5a5, type: 3}
  - {fileID: -4440127431456745721, guid: d97b72b5ffdc75b4d9869e9a5ac7a5a5, type: 3}
  - {fileID: -5661879551736585851, guid: d97b72b5ffdc75b4d9869e9a5ac7a5a5, type: 3}
  - {fileID: 492791130329662655, guid: d97b72b5ffdc75b4d9869e9a5ac7a5a5, type: 3}
  - {fileID: 7618288257126275758, guid: d97b72b5ffdc75b4d9869e9a5ac7a5a5, type: 3}
  - {fileID: 21300000, guid: cb2ae7c5493d894408e2568431bf453e, type: 3}
  - {fileID: 21300000, guid: cac33726f58e5d3479d6274518760c2f, type: 3}
  - {fileID: 21300000, guid: 81fa1736c36eaec47a1830ef05cdc8de, type: 3}
  - {fileID: 21300000, guid: e0f088c66eb770242b76008e50accafc, type: 3}
  - {fileID: 21300000, guid: 53250ac6a6c43cc45b0684d0ec1c27bf, type: 3}
  - {fileID: 21300000, guid: 62c0ccc6117d40b488ee487ed6e41d5b, type: 3}
  - {fileID: 21300000, guid: 18dabed68ddb63b47a1d4d1c5223608f, type: 3}
  - {fileID: 21300000, guid: 5007c3e6b640aae44bc1a50c2c39ef95, type: 3}
  - {fileID: 21300000, guid: bbd8cbf63af42b946b21b4ace17be160, type: 3}
  - {fileID: 21300000, guid: d773ac071bd31b24dbe92f4444276681, type: 3}
  - {fileID: 21300000, guid: ed3b751792b785047bd2966ac07a96f8, type: 3}
  - {fileID: 21300000, guid: da91d737e3d4da544bcd368ee4183413, type: 3}
  - {fileID: 21300000, guid: 78c95c3776fabd44f850a2eb29504dfe, type: 3}
  - {fileID: 21300000, guid: ca91e95759751e44d8983d582e8929af, type: 3}
  - {fileID: 21300000, guid: c11cda976fc097f4a8ae01e2765abece, type: 3}
  - {fileID: 21300000, guid: 01fd66a7c69646446a7840b40b6f2352, type: 3}
  - {fileID: 21300000, guid: b803b3f7bc36ba345bc78c982128a64f, type: 3}
  - {fileID: 21300000, guid: 360e9af752276c54c9dbec08241ada54, type: 3}
  - {fileID: 21300000, guid: 9a61b918ffec781478edd606e077a1d2, type: 3}
  - {fileID: 21300000, guid: 9e262c28eed77f34d878584dc0c25c22, type: 3}
  - {fileID: 21300000, guid: d61674e8594ff1c4cba596b613890c63, type: 3}
  - {fileID: 21300000, guid: 564207f84a8cf7c498e09b769321eea6, type: 3}
  - {fileID: 21300000, guid: a73056198073d8544b3fbd9d857196c5, type: 3}
  - {fileID: 21300000, guid: 5690af291d5d20047a45a4f024cf33d6, type: 3}
  - {fileID: 21300000, guid: 5d192d59894db0e4089539730216493f, type: 3}
  - {fileID: 21300000, guid: ebe5ff59f2191934bb823570aed98f17, type: 3}
  - {fileID: 21300000, guid: 2820c179538caf14ea9639e2bde1010a, type: 3}
  - {fileID: 21300000, guid: 65bc04c9cd1bc22439284d9791985905, type: 3}
  - {fileID: 21300000, guid: 24872f1a77f8b2d47afc86923f55f7eb, type: 3}
  - {fileID: 21300000, guid: 5d14943ab3efc8747b2a0c256c42d966, type: 3}
  - {fileID: 21300000, guid: acde095afcecc704fa631b1a85392c51, type: 3}
  - {fileID: 21300000, guid: 1bd0bd5aed9737b499d095a613ecfd8e, type: 3}
  - {fileID: 21300000, guid: 96e9097a19023d94a85b524207eb9fac, type: 3}
  - {fileID: 21300000, guid: f539619a423416e49b3f5e831c4b113e, type: 3}
  - {fileID: 21300000, guid: e21da3ba362835c46bf4cf8da896843c, type: 3}
  - {fileID: 21300000, guid: 8a1c71fa15f3ca642a44c379afed86c9, type: 3}
  - {fileID: 21300000, guid: 2ee953fab5abdf0409141766919517e8, type: 3}
  - {fileID: 21300000, guid: c909732bd4714ad4c9a638442604cabb, type: 3}
  - {fileID: 21300000, guid: 8ae09f3bddaaa0b4b9dc6b3318614b70, type: 3}
  - {fileID: 21300000, guid: 5f21e95b638e7aa4a9823024ead85a6e, type: 3}
  - {fileID: 21300000, guid: 21859b7ba26519e44bdac79280693c4b, type: 3}
  - {fileID: 21300000, guid: 9c27ae7b7ca41ac4685ddc612bc06591, type: 3}
  - {fileID: 2988799375980105856, guid: 3427e8ab98f85044d8cdff06b42e2ae0, type: 3}
  - {fileID: -6358608869827684446, guid: 3427e8ab98f85044d8cdff06b42e2ae0, type: 3}
  - {fileID: 2990443057539896228, guid: 3427e8ab98f85044d8cdff06b42e2ae0, type: 3}
  - {fileID: -1060080713516089567, guid: 3427e8ab98f85044d8cdff06b42e2ae0, type: 3}
  - {fileID: -495215141973064099, guid: 3427e8ab98f85044d8cdff06b42e2ae0, type: 3}
  - {fileID: -1569933146601365554, guid: 3427e8ab98f85044d8cdff06b42e2ae0, type: 3}
  - {fileID: 21300000, guid: ef926fabbba1c864a9cd71c002f4c4ac, type: 3}
  - {fileID: 21300000, guid: 8efb1fbbfdd1d8b4085fd60ebbd73e69, type: 3}
  - {fileID: 21300000, guid: c7ab72db1ca4bb3449fb1b53af5e2107, type: 3}
  - {fileID: 21300000, guid: b315bb1cc636edd4ab77e1f2dd4728cc, type: 3}
  - {fileID: 21300000, guid: 9e4e172c0be614245a4c9f77a7434c06, type: 3}
  - {fileID: 21300000, guid: ee1d0b6cf2e938649a40971482856e74, type: 3}
  - {fileID: 21300000, guid: 64ffb98c69bb8434da7c77f5dd6f6e2f, type: 3}
  - {fileID: 21300000, guid: 3b80df9c365edef498430e2f19439923, type: 3}
  - {fileID: 21300000, guid: 896b6ccc46c889849bb317105c198a1e, type: 3}
  - {fileID: -3861048188610095045, guid: 7e5a054dcf3150c48b70c7dd21c960e0, type: 3}
  - {fileID: -877059655726756360, guid: 7e5a054dcf3150c48b70c7dd21c960e0, type: 3}
  - {fileID: 3501276909863707669, guid: 7e5a054dcf3150c48b70c7dd21c960e0, type: 3}
  - {fileID: 8672123283656860946, guid: 7e5a054dcf3150c48b70c7dd21c960e0, type: 3}
  - {fileID: 6260162421507589299, guid: 7e5a054dcf3150c48b70c7dd21c960e0, type: 3}
  - {fileID: 768747628526831211, guid: 7e5a054dcf3150c48b70c7dd21c960e0, type: 3}
  - {fileID: -4448956770062678194, guid: 7e5a054dcf3150c48b70c7dd21c960e0, type: 3}
  - {fileID: -726986586176349463, guid: 7e5a054dcf3150c48b70c7dd21c960e0, type: 3}
  - {fileID: 4006798958623691636, guid: 7e5a054dcf3150c48b70c7dd21c960e0, type: 3}
  - {fileID: 4403801600469109785, guid: 7e5a054dcf3150c48b70c7dd21c960e0, type: 3}
  - {fileID: -1570448690995009390, guid: 7e5a054dcf3150c48b70c7dd21c960e0, type: 3}
  - {fileID: 21300000, guid: e8ce025df5ef2d24da9312a19d20f9b8, type: 3}
  - {fileID: 21300000, guid: 112f045df5af40044ac3c398e09b041c, type: 3}
  - {fileID: 21300000, guid: 8c3f245d8c790844b9d2707586f97885, type: 3}
  - {fileID: 21300000, guid: 677eae6dd64401e4b8864906994a897e, type: 3}
  - {fileID: 21300000, guid: f7f4567d4ff317745a783ec18ba86969, type: 3}
  - {fileID: 21300000, guid: 0e441c9d08716ee41b68b173c2f43066, type: 3}
  - {fileID: 21300000, guid: 1f1c5d9d621c0334684e9215bc9c6e6c, type: 3}
  - {fileID: 21300000, guid: 3f9ed2ad3b319ce49b6c1fe31f64d868, type: 3}
  - {fileID: 21300000, guid: dcc25cbd758897c4dbb84202dfa41cd1, type: 3}
  - {fileID: 21300000, guid: 87ab220ea42505044bff03045838ae9f, type: 3}
  - {fileID: 21300000, guid: 05c1c70e4e5a64546bdedd0d9e552b0c, type: 3}
  - {fileID: 21300000, guid: 0f18490ee3f31aa4ba7bf423058ebedb, type: 3}
  - {fileID: 21300000, guid: 8fbf696e54b9c234e8a0acb7aca1fcaa, type: 3}
  - {fileID: 21300000, guid: bb54d17e2fb97e04283a5fa14fbf6d39, type: 3}
  - {fileID: 21300000, guid: 9ff3e87e172f5f645b51d640cb8f6755, type: 3}
  - {fileID: 21300000, guid: 9a1eea7e839ed1e4fae1568bdd1dd61e, type: 3}
  - {fileID: 21300000, guid: c4400c8e8d786fb42a84a271ce77f7fa, type: 3}
  - {fileID: 21300000, guid: 7067e09ecd6783747b27d0447ad862f0, type: 3}
  - {fileID: 21300000, guid: d74f59ee82b5a4644a08e5d58eea0c4c, type: 3}
  - {fileID: 21300000, guid: 7730dafee7d11d74184e75f57350dbab, type: 3}
  - {fileID: 21300000, guid: d54f451f391e18748a61bc6178f71c2b, type: 3}
  - {fileID: 21300000, guid: 3263932fe2e227445b955ec4ff82808e, type: 3}
  - {fileID: 21300000, guid: 9f430e6fad28c1d47af28ca59050970d, type: 3}
  - {fileID: 21300000, guid: 8787027f35162504cb9d6ccb448d2467, type: 3}
  - {fileID: 21300000, guid: 26be038f89bf19f4fbb8b8a3a5f638dc, type: 3}
  - {fileID: 21300000, guid: e23db19f5404d4943b62aaad9dd2359a, type: 3}
  - {fileID: 21300000, guid: 846a129f1f535da4bb519b21385d3e6f, type: 3}
  - {fileID: 21300000, guid: aebd33afe1127ba4d8c80fced3531e7a, type: 3}
  - {fileID: 21300000, guid: 3311f3bf2f4b0a649a24bfc97f52bca2, type: 3}
  - {fileID: 21300000, guid: a3c8bbffa92954f45b1eb6ccdba49e29, type: 3}
  - {fileID: 21300000, guid: c6d48dff34a4f7b408c0164fbc42cc6a, type: 3}
  m_PackedSpriteNamesToIndex:
  - Weapon_M762
  - Arrow
  - Main_UI_Button01
  - Brandon_Run 2
  - Idle_Withhands02
  - Brandon_Idle 2
  - Backgroundtree01
  - Zombie_Attack01
  - MaskedMan_Jump
  - Weapon_Glock
  - Scratch02
  - Weapon_UZI01
  - QuickJoin3
  - etc02_13
  - etc02_12
  - etc02_11
  - etc02_10
  - etc02_17
  - etc02_16
  - etc02_15
  - etc02_14
  - etc02_19
  - etc02_18
  - etc02_0
  - etc02_1
  - etc02_2
  - etc02_3
  - etc02_4
  - etc02_5
  - etc02_6
  - etc02_7
  - etc02_8
  - etc02_9
  - etc02_26
  - etc02_27
  - etc02_24
  - etc02_25
  - etc02_39
  - etc02_22
  - etc02_38
  - etc02_23
  - etc02_20
  - etc02_21
  - etc02_31
  - etc02_30
  - etc02_33
  - etc02_28
  - etc02_32
  - etc02_29
  - etc02_35
  - etc02_34
  - etc02_37
  - etc02_36
  - etc02_40
  - etc02_41
  - etc02_42
  - etc02_43
  - Main_UI_Button02
  - Aiko_Death
  - Weapon_Grenade
  - AikoDeath_Withhands02
  - Idle_Withhands01
  - Health_Logo
  - Hourglass
  - etc01_7
  - etc01_6
  - etc01_5
  - etc01_4
  - etc01_3
  - etc01_2
  - etc01_1
  - etc01_0
  - etc01_9
  - etc01_8
  - etc01_12
  - etc01_13
  - etc01_10
  - etc01_11
  - etc01_16
  - etc01_17
  - etc01_14
  - etc01_15
  - etc01_18
  - etc01_19
  - etc01_22
  - etc01_21
  - etc01_20
  - Mini_UI_Button02
  - UI_Button_Grey
  - Halo4
  - IMG_1963
  - Medkit
  - AikoDeath_Nohands01
  - Square
  - Weapon_Glock_Highlight
  - Halo2
  - light03
  - Heart
  - Brandon_Dead
  - Chest02
  - Jump_Nohands01
  - Jump_Withhands02
  - Weapon_Shotgun_Highlight
  - UI_Button_Square
  - AikoDeath_Nohands02
  - SmallUI_Button02
  - Weapon_UZI_Highlight01
  - Brandom_Arm
  - Mini_UI_Button01
  - BigUI_Button
  - Chest01
  - Jump_Withhands01
  - Brandon_Idle 1
  - RightPlatform
  - MiniUI_Button02
  - Weapon_MP5
  - QuickJoin
  - Ui_Button1
  - Bullet01
  - Map1_Logo
  - etc04_19
  - etc04_18
  - etc04_11
  - etc04_10
  - etc04_13
  - etc04_12
  - etc04_15
  - etc04_14
  - etc04_17
  - etc04_16
  - etc04_20
  - etc04_21
  - etc04_22
  - etc04_23
  - etc04_24
  - etc04_25
  - etc04_26
  - etc04_27
  - etc04_2
  - etc04_3
  - etc04_0
  - etc04_1
  - etc04_6
  - etc04_7
  - etc04_4
  - etc04_5
  - etc04_8
  - etc04_9
  - Small_UI_Button02
  - Halo4
  - Border
  - Map3_Logo
  - MaskedMan_Run1
  - Zombie_Running01
  - Halo3
  - Idle_Nohands01
  - UI_Button_White
  - MaskedMan_Idle2
  - Background
  - SmallUI_Button01
  - Zombie_Idle
  - 355-3554825_profile-icon-mirai-nikki-pixel-art
  - Pop01
  - MaskedMan_Run2
  - pixel-facebook-icon-12
  - MaksedMan_Arm
  - Small_UI_Button01
  - Weapon_MP5_Highlight
  - locker02
  - Zombie_Attack02
  - Brandon_Run 1
  - 'Picking up '
  - Custom_Tab2
  - Item_Cola
  - Custom_Tab3
  - Lamp
  - Sol
  - QuickJoin2
  - link
  - Weapon_Shotgun
  - Weapon_Kar_Highlight01
  - LeftPlatform
  - Sign
  - Weapon_Skar_Highlight
  - Custom_Tab1
  - UI_Movebutton
  - Halo1
  - MaskedMan_Dead
  - UI_Button_Blue
  - Pop02
  - Glass_4
  - Glass_5
  - Glass_0
  - Glass_1
  - Glass_2
  - Glass_3
  - light02
  - BG_HealthBar
  - Map2_Logo
  - MaskedMan_Idle1
  - Halo3
  - Zombie_Running02
  - MiniUI_Button01
  - Halo1
  - Scratch01
  - etc03_10
  - etc03_9
  - etc03_8
  - etc03_1
  - etc03_0
  - etc03_3
  - etc03_2
  - etc03_5
  - etc03_4
  - etc03_7
  - etc03_6
  - UI_Switch
  - Running_Withhands01
  - AikoDeath_Withhands01
  - Door02
  - light01
  - Weapon_Kar98
  - Jump_Nohands02
  - Weapon_M762_Highlight
  - UI_Jump
  - Window
  - MidPlatform
  - HandJoint
  - Bridge
  - Guess profile icon
  - Lamp01
  - Halo2
  - Brandon_Jump
  - Running_Withhands02
  - Door01
  - Running_Nohands02
  - Border_Healthbar
  - Pop
  - Zombie_Death
  - Running_Nohands01
  - Ui_Button2
  - Idle_Nohands02
  - Weapon_Scar
  - Scratch03
  - Ui_Button3
  - UI_Movebutton(1)
  - locker01
  m_Tag: Game Sprite Atlas
  m_IsVariant: 0
