%YAML 1.1
%TAG !u! tag:unity3d.com,2011:
--- !u!114 &11400000
MonoBehaviour:
  m_ObjectHideFlags: 0
  m_CorrespondingSourceObject: {fileID: 0}
  m_PrefabInstance: {fileID: 0}
  m_PrefabAsset: {fileID: 0}
  m_GameObject: {fileID: 0}
  m_Enabled: 1
  m_EditorHideFlags: 0
  m_Script: {fileID: 11500000, guid: 9c54ce26a5c4e7e44888ca1bac856c2b, type: 3}
  m_Name: 1Map_ApocalypseDugeon
  m_EditorClassIdentifier: 
  mapName: Apocalypse Dugeon
  mapSceneName: GamePlay_map1
  maxPlayer: 6
  gameTime: 250
  mapImage: {fileID: 21300000, guid: bf10caa5d158d3b4cade5ed09928e124, type: 3}
