%YAML 1.1
%TAG !u! tag:unity3d.com,2011:
--- !u!114 &11400000
MonoBehaviour:
  m_ObjectHideFlags: 0
  m_CorrespondingSourceObject: {fileID: 0}
  m_PrefabInstance: {fileID: 0}
  m_PrefabAsset: {fileID: 0}
  m_GameObject: {fileID: 0}
  m_Enabled: 1
  m_EditorHideFlags: 0
  m_Script: {fileID: 11500000, guid: 9c54ce26a5c4e7e44888ca1bac856c2b, type: 3}
  m_Name: 2Map_LonelyRainyVillage
  m_EditorClassIdentifier: 
  mapName: Lonely Rainy Village
  mapSceneName: GamePlay_Map2
  maxPlayer: 5
  gameTime: 200
  mapImage: {fileID: 21300000, guid: c7ab72db1ca4bb3449fb1b53af5e2107, type: 3}
